-0.031357 -0.228121
-0.029915 -0.231141
-0.027067 -0.246336
-0.031506 -0.257079
-0.031566 -0.267865
-0.046392 -0.285071
-0.070342 -0.308991
-0.070486 -0.318546
-0.066091 -0.323275
-0.045300 -0.326209
-0.025990 -0.326050
-0.006697 -0.324380
0.011089 -0.321201
0.022950 -0.321257
0.033360 -0.324536
0.040820 -0.327817
0.052808 -0.334405
0.058916 -0.344216
0.063536 -0.352445
0.071159 -0.359147
0.078818 -0.365901
0.086515 -0.372711
0.094211 -0.377906
0.106558 -0.384962
0.114291 -0.388575
0.126598 -0.390698
0.137357 -0.391116
0.148218 -0.393263
0.159056 -0.393752
0.169858 -0.392575
0.179132 -0.391350
0.188348 -0.388450
0.192878 -0.385315
0.209632 -0.376150
0.215755 -0.373149
0.223374 -0.368574
0.229422 -0.363925
0.244526 -0.351544
0.252199 -0.347056
0.256589 -0.340727
0.265386 -0.328138
0.266689 -0.323315
0.270806 -0.312177
0.273336 -0.301011
0.274193 -0.288214
0.273570 -0.277016
0.274396 -0.262807
0.274069 -0.256490
0.271933 -0.245411
0.268252 -0.234331
0.264615 -0.223328
0.259519 -0.213872
0.252910 -0.204419
0.246413 -0.196555
0.239760 -0.182682
0.239467 -0.173621
0.240683 -0.163135
0.247946 -0.148364
0.255217 -0.132141
0.264026 -0.113022
0.265224 -0.096751
0.263456 -0.084904
0.260316 -0.081904
0.237410 -0.087425
0.211817 -0.097295
0.202753 -0.094230
0.184731 -0.086690
0.178704 -0.079344
0.174228 -0.076391
0.166837 -0.076317
0.156537 -0.077668
0.137816 -0.110879
0.130499 -0.110795
0.130515 -0.112251
0.121753 -0.112155
0.114483 -0.113535
0.107210 -0.113464
0.099964 -0.114851
0.092716 -0.114788
0.085467 -0.113279
0.076787 -0.111766
0.068106 -0.107366
0.055103 -0.097182
0.032082 -0.072648
0.020633 -0.072629
0.016343 -0.074059
0.012058 -0.081236
0.014944 -0.101399
0.032244 -0.133323
0.029391 -0.140601
0.026536 -0.147896
0.022236 -0.155204
0.019373 -0.162536
0.017946 -0.168418
0.013636 -0.177261
0.010755 -0.181693
0.007877 -0.190588
0.004991 -0.198027
-0.015292 -0.202513
-0.031259 -0.207052
-0.031273 -0.210049
