2066
-16.0495	3.41691	-21.8797	
-16.0034	5.2115	-19.426	
-15.9142	6.84041	-20.984	
-15.9091	-1.10484	-22.4147	
-15.8286	9.47699	-19.0622	
-15.7905	-2.44921	-19.1261	
-15.7275	-0.233276	-18.1476	
-15.6207	3.93682	-17.3775	
-15.5692	-0.112208	-25.0747	
-15.5502	5.63684	-23.8306	
-15.543	-5.33407	-23.6653	
-15.5309	5.86539	-17.1203	
-15.4228	2.42564	-16.7557	
-15.3415	1.09864	-16.6377	
-15.3376	13.0011	-18.4991	
-15.2925	2.30806	-25.6929	
-15.27	-8.94976	-20.9057	
-15.1811	9.21684	-23.5413	
-15.1293	12.8725	-20.8358	
-15.1044	-2.70226	-16.1658	
-15.0233	-9.07726	-25.758	
-14.9778	13.0834	-16.1654	
-14.923	16.5181	-17.9482	
-14.9116	5.5589	-26.059	
-14.7836	4.90399	-14.9196	
-14.7705	-12.5106	-18.0487	
-14.7531	1.52394	-14.9171	
-14.7513	12.7349	-23.1629	
-14.7434	-8.90511	-16.2803	
-14.6967	-0.929376	-14.8463	
-14.6366	-12.6305	-22.7886	
-14.541	9.49783	-14.4414	
-14.4721	-1.7051	-28.5254	
-14.3838	1.92531	-28.488	
-14.3814	-3.11661	-14.1086	
-14.3807	13.1127	-13.8495	
-14.3174	19.9619	-17.4195	
-14.3059	-5.3724	-28.3934	
-14.2488	16.2061	-22.7395	
-14.2332	5.50889	-28.3581	
-14.2156	12.6074	-25.4862	
-14.2083	-8.90794	-14.027	
-14.1869	20.0661	-14.9534	
-14.1402	-16.0809	-19.8569	
-14.0691	-9.09488	-28.1881	
-14.031	-16.0471	-17.5333	
-14.0125	16.6463	-13.199	
-14.0112	1.01937	-13.3285	
-14.0046	19.7923	-19.8629	
-13.9944	9.04395	-28.1303	
-13.985	-16.2291	-22.2102	
-13.8547	-12.4561	-13.4778	
-13.838	5.78356	-12.7523	
-13.8235	3.36526	-12.9343	
-13.7841	13.2172	-11.6417	
-13.7818	20.1629	-12.5547	
-13.7813	-1.65456	-12.8424	
-13.737	-7.17984	-12.6664	
-13.6892	23.3882	-16.9049	
-13.6511	-15.9663	-15.2287	
-13.6452	-16.4431	-24.54	
-13.5972	19.6075	-22.3024	
-13.5668	12.4962	-27.8135	
-13.443	-1.68115	-30.8514	
-13.362	5.48586	-30.657	
-13.3487	20.2424	-10.1278	
-13.3057	-12.9238	-27.7943	
-13.2899	-15.9178	-12.9139	
-13.2482	23.6638	-11.9811	
-13.2001	-8.93173	-30.6548	
-13.1124	-19.5331	-17.0406	
-13.0702	19.4059	-24.7044	
-13.0622	15.884	-27.4487	
-13.0032	-19.6245	-21.5909	
-12.8967	9.30376	-10.5078	
-12.8756	-15.9109	-10.5777	
-12.8506	22.9755	-21.8556	
-12.8058	26.7684	-16.5874	
-12.7889	27.4578	-13.9001	
-12.7139	12.4022	-30.0938	
-12.6449	27.2412	-11.5371	
-12.626	5.62102	-10.6023	
-12.5724	26.4064	-18.9748	
-12.5486	12.4812	-9.32588	
-12.4892	20.4381	-7.78937	
-12.4736	1.75538	-10.8439	
-12.4632	16.6989	-8.29718	
-12.4103	-19.2798	-12.4632	
-12.409	27.6337	-8.91124	
-12.3966	-1.97365	-10.712	
-12.3948	1.93879	-33.1478	
-12.3866	-5.55587	-10.3933	
-12.3734	-1.62461	-33.231	
-12.3509	-12.4257	-9.23438	
-12.3104	-5.22193	-33.2724	
-12.3059	5.488	-32.9717	
-12.2713	-17.0377	-27.3712	
-12.1856	-9.09538	-9.48725	
-12.1273	8.97536	-32.6946	
-12.1074	23.8647	-7.28106	
-12.0488	21.8719	-25.5985	
-11.9801	26.3123	-21.4392	
-11.8987	20.3746	-27.4249	
-11.8736	-15.6594	-8.48992	
-11.7975	-8.76956	-33.3777	
-11.7957	-15.0517	-29.8849	
-11.7925	12.3387	-32.3756	
-11.7918	-22.903	-17.2869	
-11.7464	27.3198	-6.78362	
-11.7087	30.1737	-13.796	
-11.691	29.6669	-16.5357	
-11.6897	20.9517	-5.57305	
-11.6119	30.0722	-11.4065	
-11.5978	-22.7206	-14.4079	
-11.589	18.9436	-29.315	
-11.5158	-20.4017	-25.8971	
-11.4937	24.3517	-25.0861	
-11.4637	-22.53	-12.0956	
-11.4342	-23.2127	-23.0654	
-11.3513	30.6137	-8.97482	
-11.3185	13.8058	-7.31681	
-11.2389	15.6131	-31.9801	
-11.174	26.6212	-24.1149	
-11.1108	-22.5246	-9.78823	
-11.0991	27.292	-4.48444	
-11.0745	-18.9802	-8.00198	
-11.0554	5.53176	-35.2457	
-11.0513	-1.53041	-35.5005	
-11.0431	-11.8931	-33.1142	
-11.0269	5.66012	-8.52418	
-10.9959	8.52971	-8.09505	
-10.9853	29.1209	-20.7243	
-10.9557	-7.62848	-8.20157	
-10.8223	-2.45229	-8.83385	
-10.8139	-13.6546	-6.59218	
-10.7838	12.3076	-34.5843	
-10.7564	-15.2864	-32.0671	
-10.7384	30.3473	-6.62991	
-10.6704	19.209	-4.18361	
-10.5828	-25.1665	-20.7013	
-10.5353	24.21	-2.87599	
-10.5155	22.1492	-29.5652	
-10.3568	-25.4725	-11.7984	
-10.2945	2.72367	-8.22965	
-10.2847	27.0689	-26.3202	
-10.2589	-22.4287	-7.46213	
-10.2386	-8.95494	-36.2629	
-10.1672	9.72468	-7.03609	
-10.1446	-26.3388	-16.485	
-10.1345	-18.2094	-31.0731	
-10.105	27.8121	-2.43545	
-10.0722	33.0222	-13.9185	
-10.0583	32.5676	-18.0501	
-10.0519	-9.49711	-6.67242	
-10.0474	-23.8649	-25.6331	
-9.7883	33.4684	-11.6406	
-9.78167	12.8183	-5.87046	
-9.71625	-15.8765	-34.0294	
-9.71363	-22.5922	-27.6616	
-9.60592	25.8426	-28.6744	
-9.59285	1.95609	-37.8327	
-9.56405	26.3525	-1.14186	
-9.55486	9.19183	-37.116	
-9.52982	-1.69454	-37.8697	
-9.49435	-4.75128	-37.5709	
-9.49366	5.72526	-37.7185	
-9.47882	4.39538	-7.34456	
-9.45249	15.3312	-4.65405	
-9.43644	-14.4678	-4.74848	
-9.35896	-27.3993	-20.4254	
-9.33771	30.7575	-2.45626	
-9.33701	7.13602	-6.85986	
-9.32514	21.8383	-1.58249	
-9.31134	-21.2969	-29.7768	
-9.23594	-22.3524	-4.69002	
-9.17364	-25.746	-7.54114	
-9.15804	-18.1111	-4.076	
-9.06889	-28.4919	-12.814	
-9.05392	33.7377	-6.88142	
-9.05352	19.1035	-34.0608	
-9.01199	9.97472	-6.00346	
-9.00943	0.236809	-7.25973	
-9.0045	5.8264	-6.81084	
-8.97869	29.0708	-26.7034	
-8.95666	-26.8787	-24.1312	
-8.91968	15.1391	-36.1433	
-8.90124	-6.42624	-6.51955	
-8.84487	-28.7791	-9.95578	
-8.69243	28.8499	-0.284733	
-8.6852	-29.064	-18.3916	
-8.6423	11.6392	-5.26327	
-8.59593	-8.93531	-38.2553	
-8.54591	35.2785	-10.3469	
-8.53978	-2.94153	-6.8133	
-8.52859	-18.8804	-33.5439	
-8.49902	13.3363	-4.56633	
-8.4154	32.1932	-23.2795	
-8.38866	24.4965	0.715238	
-8.16485	-11.3642	-4.4216	
-8.14134	22.0785	0.0983876	
-8.09021	34.4735	-20.0924	
-7.99142	28.8491	-28.9017	
-7.95763	17.3146	-2.2139	
-7.94615	-15.2951	-3.04406	
-7.87193	33.8497	-3.65133	
-7.83584	-16.7589	-35.8425	
-7.81825	36.4998	-15.8504	
-7.79226	26.4329	-31.6559	
-7.74217	-24.6842	-29.2289	
-7.74055	-2.44316	-40.4061	
-7.72228	-31.4258	-16.3447	
-7.7145	6.78866	-5.74985	
-7.64198	1.56009	-40.5272	
-7.62039	0.883199	-6.28024	
-7.53043	31.8348	-26.0346	
-7.50707	-31.1262	-12.8835	
-7.50497	-21.7198	-32.7369	
-7.49913	6.20081	-40.4979	
-7.47255	-26.126	-3.48045	
-7.46505	32.7685	-1.43041	
-7.42265	12.8705	-38.9451	
-7.36894	12.6313	-4.01516	
-7.25342	22.5356	1.27224	
-7.17875	-1.16308	-6.0427	
-7.17352	36.7767	-8.20268	
-7.14231	-30.8768	-20.2769	
-7.1411	-15.4776	-37.2254	
-7.11908	10.1093	-40.2491	
-7.06414	13.8207	-3.34607	
-6.99343	26.6004	2.21851	
-6.98835	10.1065	-4.53125	
-6.9556	-22.4969	-1.46257	
-6.94878	-18.1504	-1.1143	
-6.93186	4.34659	-5.63385	
-6.92135	-8.62744	-4.51872	
-6.91332	19.7987	-36.7334	
-6.85951	20.6128	0.593979	
-6.85083	23.7018	-34.866	
-6.77201	-31.1784	-8.43309	
-6.70667	3.4337	-41.6921	
-6.69139	37.9641	-13.2925	
-6.62193	-29.5545	-5.00157	
-6.55353	-30.7114	-23.7277	
-6.49369	31.884	-28.1049	
-6.48437	-12.2909	-39.2583	
-6.43612	-21.5187	-34.731	
-6.32663	32.4251	0.468202	
-6.31935	2.82277	-5.47084	
-6.31163	11.9527	-3.63261	
-6.25663	-7.96316	-40.9895	
-6.21014	16.6353	-39.1848	
-6.17767	6.3573	-4.88534	
-6.14574	22.9973	2.12743	
-6.12297	5.44301	-42.4996	
-6.12215	38.4046	-10.1101	
-6.09321	16.1084	-1.71522	
-6.09003	18.036	-0.495244	
-6.00249	38.4944	-17.2962	
-5.92749	-4.18486	-42.1577	
-5.88739	14.0892	-2.62972	
-5.837	10.4482	-3.74721	
-5.74676	-0.417455	10.9294	
-5.73364	19.3111	0.587284	
-5.7146	-25.0789	-32.1115	
-5.69147	-16.3282	-38.352	
-5.66779	-1.32988	11.3681	
-5.64391	0.604696	10.6999	
-5.61135	-29.963	-26.6038	
-5.5585	-29.0373	-2.41139	
-5.52385	-14.6223	-1.17936	
-5.47149	29.8771	-32.3507	
-5.45329	8.79521	-42.5185	
-5.40378	0.525962	-43.1141	
-5.40208	-26.993	-0.496095	
-5.38839	4.30311	-4.81156	
-5.38303	-1.8572	-43.0506	
-5.38159	0.769049	10.0247	
-5.36502	1.3954	10.9065	
-5.35748	-0.135348	9.54824	
-5.34433	12.528	-2.97221	
-5.31534	-0.768375	-5.08837	
-5.30259	-6.96484	-4.20238	
-5.29502	-32.6881	-5.57408	
-5.29501	-2.15276	11.8733	
-5.28355	-11.9505	-40.5405	
-5.26494	21.5481	-37.9999	
-5.2423	-3.15822	-4.91188	
-5.23692	-34.7514	-13.3892	
-5.22357	8.79351	-3.79093	
-5.17927	-20.9664	1.28137	
-5.15301	25.4861	-35.9454	
-5.14908	35.8367	-25.4275	
-5.10765	0.967459	9.46087	
-5.03669	-0.677275	8.83803	
-5.0357	39.8955	-15.0838	
-5.01662	-35.0286	-16.4279	
-4.97585	-34.7613	-10.8328	
-4.96571	1.95615	11.144	
-4.96019	39.8398	-11.8978	
-4.91592	-10.321	-2.75813	
-4.89384	-0.455604	8.27782	
-4.88517	15.3454	-1.55831	
-4.88147	13.0899	-41.8936	
-4.87004	-2.0253	10.19	
-4.84635	32.5542	1.98374	
-4.84014	19.9068	1.47757	
-4.81036	4.11994	-43.7322	
-4.74729	-2.60193	11.2566	
-4.74054	-18.0425	0.850463	
-4.71511	32.8311	-30.1111	
-4.70717	1.02688	-4.84235	
-4.66383	0.0300744	7.75211	
-4.63128	1.36574	8.87226	
-4.6021	24.475	3.94997	
-4.53046	17.5777	0.0251923	
-4.51118	39.4997	-7.998	
-4.46342	-1.13215	7.55858	
-4.41263	22.0852	3.15732	
-4.40329	36.5944	-1.87727	
-4.34205	38.2948	-23.5194	
-4.287	5.15327	-4.14514	
-4.28013	39.1059	-20.9304	
-4.26174	-34.8007	-7.67525	
-4.18517	0.513192	7.13745	
-4.16931	2.4551	11.187	
-4.16523	-2.09688	8.01662	
-4.15897	20.5794	2.31976	
-4.13154	1.8211	8.85407	
-4.09853	13.3852	-2.17812	
-4.05789	-29.0306	-30.5003	
-4.00616	-1.38938	6.83652	
-4.00188	7.79995	-3.41095	
-3.96438	-32.1235	-2.78209	
-3.95983	-33.7661	-23.882	
-3.93334	25.6093	4.74828	
-3.92571	-3.08469	10.2632	
-3.89488	-24.7767	1.82828	
-3.88598	-1.71155	-4.4648	
-3.88145	-13.7359	-41.191	
-3.8437	17.697	-41.5216	
-3.8342	-29.9899	-0.416467	
-3.82225	-21.6948	-37.3846	
-3.80967	-3.31955	11.6636	
-3.77154	1.51892	7.4106	
-3.75505	-4.64578	-4.0576	
-3.75094	1.9738	8.3786	
-3.72887	-3.11849	-4.2796	
-3.70078	-26.7307	-33.3897	
-3.63158	-35.9822	-20.6311	
-3.57746	11.2424	-2.47884	
-3.56177	-2.94182	8.38763	
-3.47562	39.4785	-5.48408	
-3.4724	21.9593	-39.858	
-3.46806	0.660293	-44.7845	
-3.41785	29.8977	-34.8607	
-3.37056	0.516417	5.77716	
-3.34695	-2.01508	6.22609	
-3.33207	6.12882	-3.51906	
-3.31494	28.1932	5.09281	
-3.27266	-24.6927	-35.7893	
-3.198	-10.1529	-43.131	
-3.19275	13.7857	-43.2888	
-3.18914	-19.7366	2.74441	
-3.18632	3.11185	-4.0968	
-3.16625	1.37712	6.14707	
-3.15368	14.182	-1.49364	
-3.11626	-7.21557	-44.199	
-3.06379	-35.0333	-5.12981	
-3.05924	1.94212	6.90181	
-3.03962	41.21	-18.0095	
-3.03555	17.3976	0.672247	
-3.02207	2.15978	7.53701	
-2.9912	7.47854	-3.06736	
-2.92404	0.0367642	-4.24385	
-2.92036	37.7469	-1.63239	
-2.91545	-0.372268	4.92168	
-2.88219	2.56701	9.68619	
-2.86414	33.451	-32.2867	
-2.84315	27.2632	-37.4917	
-2.84099	-37.3843	-13.7052	
-2.82	-37.8079	-16.2412	
-2.7988	19.6795	2.43301	
-2.77698	14.9462	-0.890527	
-2.75596	-8.12144	-2.71497	
-2.70555	-12.8431	-0.275814	
-2.6825	4.27591	-3.70941	
-2.68113	23.711	5.19252	
-2.65196	-3.37762	-45.2613	
-2.59097	-36.3985	-7.07556	
-2.58993	6.24593	-45.2557	
-2.57526	-10.4426	-1.49482	
-2.51174	-3.81268	10.913	
-2.50414	1.52875	-4.07927	
-2.49847	-3.49236	7.35514	
-2.46747	-1.46805	-4.02083	
-2.45778	-5.50163	-3.39403	
-2.43254	42.1242	-15.31	
-2.42667	-3.87051	9.38207	
-2.42195	-28.6687	2.10103	
-2.37947	-36.6436	-22.9456	
-2.37146	-22.7154	3.87141	
-2.36099	37.9735	-27.9205	
-2.31032	42.2857	-12.1457	
-2.29497	10.666	-2.10107	
-2.2556	7.19697	-2.86747	
-2.25521	-16.7302	2.26914	
-2.18619	-1.40648	4.19544	
-2.16377	36.2721	-30.4539	
-2.16203	-2.84056	5.28645	
-2.09304	-33.0259	-28.5989	
-1.91391	13.7982	-1.15777	
-1.89714	41.0831	-6.41326	
-1.88199	-38.1252	-18.4744	
-1.86693	15.332	-0.207438	
-1.85347	-0.211689	3.69494	
-1.83455	0.905296	4.13566	
-1.78382	2.39141	6.5462	
-1.74877	-37.7439	-9.76557	
-1.70388	17.69	-43.3736	
-1.70188	16.4037	0.668909	
-1.69605	40.5397	-24.0972	
-1.69435	1.74995	4.93352	
-1.67374	2.61648	9.27274	
-1.59671	2.68967	8.50822	
-1.58541	40.0295	-26.4955	
-1.58078	12.2507	-45.1052	
-1.56365	36.3409	1.52562	
-1.52277	-4.16089	9.03828	
-1.48609	-19.7477	-40.6535	
-1.47849	-3.89597	6.12505	
-1.43877	-2.5306	3.84429	
-1.43312	34.5468	3.42164	
-1.34842	-3.60809	11.5198	
-1.34829	12.8076	-1.26826	
-1.33008	-24.4689	-37.8489	
-1.32979	-31.329	-31.9314	
-1.32584	31.1763	5.72931	
-1.26469	19.2462	3.01859	
-1.207	0.413685	-46.4503	
-1.19247	-8.74323	-1.75626	
-1.17356	-22.5299	-39.2979	
-1.17253	-39.0588	-12.5111	
-1.1653	-32.3708	1.18922	
-1.10135	21.5993	4.97942	
-1.06332	39.9043	-2.7612	
-1.03568	-1.23228	-3.66365	
-0.982707	-3.79095	4.75527	
-0.957307	28.5452	-38.6133	
-0.955505	-17.3467	-42.1881	
-0.852376	-9.96834	-0.980955	
-0.82679	2.77623	7.57917	
-0.819594	-3.52984	-46.5034	
-0.819397	27.0494	6.80374	
-0.785843	-37.7876	-5.96676	
-0.763238	2.67515	8.84188	
-0.710541	-39.4457	-16.3535	
-0.685395	10.252	-1.55531	
-0.671197	7.48005	-46.6197	
-0.668421	39.2947	-28.8222	
-0.665802	22.4393	-42.4911	
-0.664596	8.37724	-1.98461	
-0.661653	-14.0695	1.69384	
-0.64887	1.04851	-3.71093	
-0.627239	2.19328	10.5372	
-0.614799	-38.454	-21.6185	
-0.607733	4.30402	-46.8563	
-0.6013	3.99308	-3.25663	
-0.557251	20.1622	4.20015	
-0.555757	2.73954	6.55852	
-0.53471	-35.7085	-1.98271	
-0.475314	-4.65191	6.63477	
-0.473512	15.4025	0.462393	
-0.455231	-20.1232	5.12997	
-0.370501	18.0918	2.65006	
-0.361428	-4.49925	8.95075	
-0.294466	-3.23807	11.1697	
-0.245985	-28.1219	-36.1346	
-0.229239	-11.376	0.121273	
-0.201595	42.894	-20.8519	
-0.199099	-37.4891	-24.9009	
-0.17815	43.4039	-17.3493	
-0.168051	-26.7698	5.43708	
-0.152627	-3.76369	10.3372	
-0.146517	33.311	-35.7412	
-0.137352	26.2179	-41.0818	
-0.0723157	13.7961	-0.447758	
-0.0358324	-6.59056	-46.4032	
-0.00172061	-0.819831	1.70726	
0.0051679	-2.52428	11.591	
0.0581212	-12.9366	-44.542	
0.0608043	35.5489	-33.9233	
0.110104	22.7689	6.42753	
0.122765	-8.07151	-1.53352	
0.125681	0.458895	2.01204	
0.167448	19.395	-44.3704	
0.173534	-1.93794	1.45427	
0.198128	38.5072	0.597255	
0.210663	-17.0364	4.26667	
0.234668	17.8496	2.8131	
0.237848	-4.60753	3.88683	
0.245192	-31.362	-33.7482	
0.254692	0.447871	11.1502	
0.277019	2.69915	5.32392	
0.368089	4.87952	-2.81801	
0.400029	-40.4657	-13.7705	
0.425965	-23.7984	6.31793	
0.473374	2.67422	7.81628	
0.480005	-4.47231	9.08293	
0.508822	41.8851	-26.4873	
0.551231	-1.09651	-3.35824	
0.600439	-4.9909	-2.59137	
0.617221	-32.9001	-32.5386	
0.675167	43.1612	-7.53039	
0.694137	8.67792	-1.30119	
0.695739	-35.2668	-29.7065	
0.710796	-30.755	4.59949	
0.733529	29.219	7.56488	
0.743919	-1.83254	-47.7316	
0.74599	-0.572083	10.928	
0.750478	-15.8041	3.9328	
0.782135	-5.19101	7.09992	
0.81528	16.3289	-46.0439	
0.926349	34.351	5.19555	
0.962024	2.88892	-3.26043	
1.00326	1.56367	-48.0084	
1.01275	5.42553	-2.35707	
1.05901	-39.5038	-6.07257	
1.09967	9.44263	-0.901909	
1.10156	-18.2084	5.51199	
1.10394	-32.9882	3.6848	
1.12398	38.659	-31.8072	
1.14507	12.5125	-0.416517	
1.14753	14.8801	0.587037	
1.18122	-6.64209	-1.80509	
1.19952	-3.47976	9.77622	
1.21484	1.80348	8.84914	
1.22759	4.19604	-2.86707	
1.23494	1.56852	1.95609	
1.26423	-4.66967	8.53179	
1.30162	-2.39694	10.3026	
1.33169	13.8188	0.01426	
1.34404	-4.5114	1.36546	
1.34761	-0.837168	-3.18071	
1.35722	-3.91884	-2.68185	
1.38745	29.8684	-40.0546	
1.4582	-17.2943	-43.9369	
1.47272	25.3768	-43.0395	
1.47739	-5.45418	3.24884	
1.49353	-0.806119	-0.309598	
1.50328	8.23356	-0.980588	
1.51055	20.2699	5.55698	
1.51273	-8.26897	-0.887116	
1.56327	-5.52115	6.46462	
1.56399	-0.0725023	9.73671	
1.59655	-39.1592	-3.82876	
1.59873	0.756341	0.587594	
1.6399	-2.24633	-0.727333	
1.6431	-21.4433	-42.0912	
1.66146	6.34996	-1.72206	
1.66905	1.00025	-3.12973	
1.67376	-13.4182	2.78954	
1.67907	-10.8435	-46.3973	
1.68442	-1.95646	-2.90024	
1.68761	-40.8421	-19.4854	
1.69326	-3.95974	9.1698	
1.69622	2.79757	6.45777	
1.73606	-8.55863	-47.1838	
1.73785	34.8506	-36.3558	
1.76683	24.5429	8.08848	
1.78426	-35.2549	2.59093	
1.78866	2.23993	-3.1137	
1.79522	-5.70395	5.64923	
1.80144	40.9239	-1.40733	
1.80711	44.8719	-15.6505	
1.83499	-20.159	6.92715	
1.84785	-5.17938	-48.0691	
1.87306	4.20323	-2.70067	
1.88394	-11.6416	1.51869	
1.88938	31.5172	7.54136	
1.92317	13.0711	-47.6565	
1.93219	-3.86228	-2.51553	
1.93982	-1.32267	-2.76897	
1.96533	35.3865	5.04336	
1.96582	9.37452	-0.364373	
1.97068	-1.19608	-1.38563	
1.97387	0.153231	-2.86963	
2.00543	-2.75946	-1.33609	
2.06683	-3.06072	-2.57903	
2.06689	15.641	1.65045	
2.07303	-5.45432	6.93052	
2.1143	-1.73711	-2.01622	
2.12571	-0.789196	-2.4893	
2.14259	-23.5105	7.85193	
2.14487	-2.3658	-2.37872	
2.14892	-9.76649	-47.1298	
2.15402	44.496	-21.6068	
2.17298	-0.296743	-1.78789	
2.17718	43.6466	-24.4275	
2.1874	44.8896	-12.5838	
2.18834	-5.51605	1.40058	
2.22265	21.1222	-45.5715	
2.23442	-3.94719	-1.09396	
2.26225	-40.852	-7.9997	
2.26939	1.58692	-2.77946	
2.29527	44.3948	-9.35297	
2.29804	-4.69049	-0.390389	
2.31087	-3.40794	-1.83761	
2.33479	-41.7888	-15.8557	
2.33758	10.5824	-48.4868	
2.34471	23.6865	-44.568	
2.35355	1.85343	1.02564	
2.38043	-6.04987	4.4958	
2.40509	-6.16544	-1.62084	
2.43045	-7.0416	-1.20016	
2.44333	4.22952	-2.41305	
2.44631	-4.11386	-2.0967	
2.44824	0.780008	-1.06311	
2.45908	0.916426	-2.27898	
2.46883	2.46079	-2.68869	
2.4822	-39.4015	-25.4379	
2.48296	10.2953	0.169889	
2.49004	-5.77972	5.82714	
2.49544	6.73995	-1.10363	
2.49576	7.27693	-0.800861	
2.51552	-3.98998	-48.718	
2.5486	-4.41904	-1.47805	
2.56401	17.5907	3.83048	
2.57187	2.85915	5.44432	
2.57482	1.12022	8.02674	
2.5899	-40.2931	-23.0559	
2.60085	-4.98063	-1.8908	
2.61264	-4.81847	-1.15065	
2.66353	-37.9039	0.368243	
2.66473	14.3326	0.840384	
2.72501	2.57769	2.41943	
2.7472	2.70018	-2.48023	
2.74807	-4.52318	7.94845	
2.76528	-5.38354	6.83351	
2.77528	-5.24855	-0.73278	
2.79415	-5.57497	-1.61976	
2.81992	-8.17456	-0.45881	
2.82554	-11.3738	-46.9694	
2.85518	28.911	8.94949	
2.87409	3.33717	-2.40471	
2.91557	43.7899	-6.29163	
2.93919	37.1104	-35.1514	
2.98628	-15.617	5.49148	
3.01989	-18.7697	7.20583	
3.02276	-42.3633	-13.8114	
3.04664	-34.6988	-33.1578	
3.06012	-0.655151	8.40832	
3.07041	11.315	0.621224	
3.07303	12.7176	0.595161	
3.07525	16.0744	2.54212	
3.07704	2.03727	-0.569528	
3.08457	5.8922	-1.35322	
3.10348	20.8256	6.87458	
3.10402	2.46644	-2.02027	
3.10612	8.59541	-49.2569	
3.10905	-33.4518	5.90787	
3.13783	-5.9359	5.49063	
3.14409	-5.78087	-1.03791	
3.1485	-10.4654	1.49065	
3.15154	-2.46692	8.62994	
3.15622	-31.3702	-36.6684	
3.16734	-28.7803	7.82399	
3.18422	-5.98166	-0.270988	
3.20203	3.46862	-2.0943	
3.2169	-6.3147	1.20123	
3.22698	45.5895	-17.2486	
3.24913	-38.0427	-28.4661	
3.25236	2.41371	0.4242	
3.25378	-14.0361	4.51226	
3.27253	-23.7937	-42.0582	
3.28881	6.27028	-49.5453	
3.3738	-40.1358	-2.24511	
3.41733	10.0747	0.977593	
3.43845	-5.33256	6.4061	
3.45841	-6.49282	3.10348	
3.47023	6.48272	-0.749552	
3.4775	7.71993	0.171833	
3.50434	-6.50808	-0.753598	
3.50776	2.70103	-0.943806	
3.54912	18.4168	-47.256	
3.56872	2.69144	0.542312	
3.57513	-9.41144	0.778553	
3.58041	2.81333	4.79816	
3.59221	18.7397	5.32291	
3.61093	3.93191	-1.64137	
3.64102	43.3026	-4.22476	
3.6453	-4.01371	7.44153	
3.66163	7.02531	-0.225787	
3.69092	2.79135	-0.10706	
3.69575	-3.09979	7.9266	
3.70436	3.45381	-1.43214	
3.73075	26.0137	-44.4118	
3.74454	-7.19419	-0.494931	
3.74918	2.98992	3.22464	
3.75588	2.05324	6.02899	
3.76735	-12.5152	-47.1602	
3.77832	-2.59072	-49.6978	
3.7808	-35.8386	4.87613	
3.78409	45.5426	-19.8756	
3.79851	-42.6117	-11.3329	
3.80064	-6.70392	1.86758	
3.80411	29.6912	-42.3313	
3.86697	-6.76354	-0.17569	
3.88388	-6.4815	3.87428	
3.88708	-16.5861	-45.7632	
3.91283	14.3077	1.34757	
3.98234	8.12834	0.985148	
3.99249	3.0227	1.57122	
4.00471	-15.9042	6.43242	
4.0265	3.05119	-50.0203	
4.06561	-6.09828	4.85021	
4.11531	-23.6914	9.35993	
4.12003	41.6699	-0.743179	
4.15887	-4.85025	6.24304	
4.17907	-7.76129	-0.0295509	
4.18466	36.7294	5.06867	
4.18652	-26.6445	9.25625	
4.21505	45.4073	-10.6024	
4.24835	-8.32477	0.322078	
4.27988	45.2988	-22.9171	
4.29273	-7.05247	0.382221	
4.29946	1.0244	6.27552	
4.31097	2.9574	3.9765	
4.33357	-6.77119	2.80334	
4.33458	3.38692	0.0638845	
4.37916	-13.2741	4.71745	
4.44925	-5.58892	5.36022	
4.49923	19.8563	6.69867	
4.51225	2.58832	4.66884	
4.53527	42.7734	-29.4935	
4.57351	25.6447	9.86016	
4.5805	32.526	8.30526	
4.58863	-28.3231	-40.3008	
4.63542	7.98511	1.69563	
4.65779	13.4249	1.60391	
4.67298	-42.2487	-21.3577	
4.67342	35.3827	-38.3002	
4.69695	-30.4802	-38.906	
4.69973	-20.1396	8.85381	
4.74331	-2.56965	6.613	
4.7533	-12.1795	3.97748	
4.75976	-6.53379	3.70156	
4.76629	4.12786	-0.455237	
4.76939	-10.1998	-48.7165	
4.77519	10.3032	2.32379	
4.79123	-7.31536	0.821484	
4.80503	-7.60598	0.504517	
4.83939	-6.2754	4.21094	
4.85122	1.89851	5.03044	
4.85619	16.6321	-48.6077	
4.93753	-9.07159	1.20238	
4.94911	31.9113	-41.7367	
4.97636	46.0765	-12.865	
4.98126	-4.56424	5.48031	
4.98949	40.3059	-33.0983	
4.99319	-40.2754	0.4837	
5.01999	-0.114041	5.93379	
5.04264	-16.9252	7.72345	
5.046	9.13184	2.65023	
5.05268	3.04085	3.4011	
5.0883	21.3364	8.15455	
5.10049	23.5432	-46.3055	
5.10949	16.8628	4.26742	
5.1326	-0.495371	5.87872	
5.15617	-22.618	-43.9357	
5.16755	14.1827	-49.3319	
5.20099	-7.27343	1.57669	
5.20177	-43.2198	-8.24235	
5.20574	-6.86626	2.65518	
5.21393	7.36241	1.70633	
5.22575	17.9886	5.37516	
5.22848	5.53042	-0.225981	
5.23412	-13.0952	5.18196	
5.25999	-12.818	-48.0374	
5.3101	12.4021	2.22018	
5.35992	2.53774	3.96107	
5.40532	-43.9786	-14.6721	
5.41288	14.2042	2.06786	
5.41433	-5.52369	4.37164	
5.44142	1.02945	4.82016	
5.46954	7.70356	2.68891	
5.51263	-2.11418	5.41276	
5.52238	-5.95815	3.76157	
5.53437	-42.3428	-3.96734	
5.55593	8.13428	3.08638	
5.60917	44.707	-26.2173	
5.63883	-38.6604	-30.3074	
5.64109	-32.9301	8.7701	
5.64773	-18.2753	8.85579	
5.66825	46.5586	-15.5235	
5.6791	-41.8486	-24.1629	
5.69814	-1.80014	-50.8588	
5.69863	-5.59542	-50.4404	
5.72153	10.8638	3.17635	
5.77037	8.49944	3.54573	
5.77779	7.61995	3.23344	
5.79306	-35.9881	6.98251	
5.80333	15.9243	3.59125	
5.80803	-6.31022	3.01991	
5.80822	-4.18766	4.37505	
5.82585	-0.995436	4.85534	
5.89149	-28.2743	10.2906	
5.93354	2.49823	3.24463	
5.94975	-8.37043	-49.9837	
5.95576	-5.25457	3.87376	
5.97452	-31.7912	-38.8545	
5.97637	4.24308	0.536601	
5.98752	7.31993	3.4692	
6.01172	29.3774	-43.9374	
6.04871	-25.5539	-42.8746	
6.05427	14.4814	2.47438	
6.06522	13.2774	2.50742	
6.07944	-16.2557	-47.0425	
6.09175	-9.12418	2.01465	
6.13381	45.818	-21.7853	
6.14176	-7.41489	1.93875	
6.15797	42.6112	-1.03694	
6.16151	19.0553	6.63562	
6.17902	-11.449	4.21393	
6.19726	-8.18818	10.5084	
6.22881	28.5864	10.489	
6.24079	7.17045	4.23758	
6.2503	2.92226	2.1891	
6.26724	5.94247	1.04982	
6.27325	23.596	10.1438	
6.27527	-10.2188	3.06876	
6.28148	-9.85008	10.9169	
6.30082	46.28	-17.9335	
6.32522	7.16821	4.47981	
6.32708	13.943	2.53869	
6.35162	4.68114	-51.376	
6.37837	34.4877	-40.3683	
6.39431	-43.8091	-18.5216	
6.39712	-12.5625	5.49085	
6.40193	-25.5119	10.9054	
6.40567	-5.02566	11.123	
6.41827	6.46334	3.82211	
6.41904	6.15645	1.49159	
6.46994	5.76742	11.505	
6.47729	-33.2519	-37.6526	
6.47798	12.2191	3.22819	
6.48089	38.3369	-36.55	
6.49313	9.00231	5.15004	
6.50006	-0.381787	3.53134	
6.50328	-31.1404	10.4154	
6.505	-21.9923	10.4817	
6.51203	-8.49983	9.11187	
6.51333	6.30518	3.08637	
6.55064	6.1951	2.1874	
6.55311	-10.9093	10.7919	
6.57281	-6.03539	3.11862	
6.60967	-4.74576	3.35176	
6.63051	-15.4914	7.84722	
6.63798	6.5191	5.87945	
6.63804	-6.80135	7.91257	
6.64543	-34.7463	-36.3011	
6.64686	-40.2476	2.83675	
6.65438	6.09489	8.78339	
6.65466	6.06822	4.08911	
6.69461	6.08594	4.72055	
6.70633	-11.7072	11.7763	
6.73731	6.2489	6.65013	
6.74383	4.46047	10.2451	
6.75438	6.84227	9.09727	
6.75525	15.4223	3.35341	
6.77062	-3.75589	3.17714	
6.80221	45.0098	-6.00867	
6.81813	11.3712	4.07002	
6.8261	33.2587	8.65584	
6.82993	-4.92004	8.62537	
6.84924	0.455231	2.80205	
6.8712	38.8628	4.12158	
6.87593	1.89881	2.27004	
6.87975	6.92723	11.1044	
6.89259	22.67	-47.4262	
6.9055	13.5574	2.905	
6.92819	7.72431	7.83748	
6.92973	46.0818	-9.86186	
6.93307	-11.3949	4.83745	
6.9343	-10.8192	4.28779	
6.93545	-28.0546	-41.8661	
6.94712	-2.82112	2.95104	
6.95072	-10.4756	8.14223	
6.95499	5.2458	7.44297	
6.96671	-9.61388	7.17918	
6.97721	8.32226	6.63341	
7.02569	5.46725	5.34267	
7.038	-5.42232	3.65717	
7.0446	36.7141	6.03493	
7.06321	1.6034	-51.652	
7.06551	-6.90105	3.97148	
7.08272	-41.3137	-27.2649	
7.10072	-4.62925	3.4324	
7.10896	5.31749	4.61054	
7.13363	-12.0717	10.4534	
7.14339	-5.98087	4.94067	
7.1639	40.0217	2.93709	
7.16737	-8.44298	5.66074	
7.18386	-12.5111	6.27139	
7.22334	22.0885	9.25553	
7.22361	-3.78229	9.77497	
7.22666	-2.0392	2.57912	
7.24005	-8.01979	4.41816	
7.24636	-10.7788	4.91698	
7.26091	5.04728	5.06185	
7.27587	-11.0394	5.87945	
7.28455	-11.3914	6.58882	
7.28988	-11.9491	6.33942	
7.29568	8.57729	-51.495	
7.30977	-4.88232	5.54416	
7.31973	10.1486	5.72037	
7.32692	-16.731	9.04142	
7.33641	46.5	-12.3262	
7.35807	0.521148	1.95168	
7.36818	-44.98	-12.5452	
7.36931	3.24304	10.5033	
7.37502	25.2402	10.6342	
7.39301	-32.685	-38.5927	
7.40821	-4.57811	4.15538	
7.41734	-12.228	7.54261	
7.46959	-12.7411	7.16999	
7.47579	-36.4407	-34.7057	
7.47961	44.779	-25.4309	
7.51126	13.3797	3.28095	
7.51303	45.8425	-19.6245	
7.52688	-13.716	7.56784	
7.57037	-2.86961	2.77547	
7.57966	8.46147	8.74419	
7.59144	-29.7946	11.3612	
7.61401	40.2402	-34.7575	
7.64263	-18.2547	-46.8074	
7.64526	-34.235	-37.1752	
7.64629	14.6289	3.18839	
7.65628	4.8163	2.22606	
7.68502	-30.16	-40.6328	
7.68994	-43.4963	-2.83113	
7.69106	42.9977	-29.7976	
7.69477	13.8925	3.21137	
7.70289	-1.61686	2.08268	
7.70711	-12.8474	9.42991	
7.70848	-44.5277	-6.55065	
7.73284	-3.69933	3.80259	
7.7458	3.3552	0.519911	
7.7494	-44.9357	-9.30824	
7.76012	3.71736	8.23125	
7.78087	-35.1845	9.04755	
7.78416	-2.82528	11.5933	
7.79583	-3.75325	6.53897	
7.80905	15.441	3.61219	
7.81439	4.11262	6.50378	
7.83477	16.6509	4.86972	
7.83913	-13.9569	-48.779	
7.84161	-40.1917	-29.688	
7.85501	-13.328	8.40684	
7.862	-2.24952	-51.7852	
7.9199	-22.9702	11.5154	
7.92	46.1678	-14.1743	
7.935	45.2694	-21.6918	
7.97543	-21.2411	-45.7317	
7.98252	20.893	8.45543	
8.02922	-2.33811	2.65213	
8.04511	4.01857	5.71952	
8.06159	43.8874	-27.4606	
8.10201	4.18099	3.81982	
8.10529	6.70687	-51.9605	
8.11583	-15.3103	8.77321	
8.14976	-13.8348	8.66866	
8.15361	11.852	4.96397	
8.15509	13.2781	3.66245	
8.17971	10.4363	6.66828	
8.18173	14.397	3.30722	
8.1867	-32.5344	10.7184	
8.18842	17.5933	5.87871	
8.20285	-17.307	9.92785	
8.2382	2.17637	11.1981	
8.24346	3.6141	7.06047	
8.25301	27.2743	-45.882	
8.25888	42.0379	-31.6672	
8.25935	43.5883	-2.58596	
8.29045	2.44211	0.152504	
8.30931	-26.4754	-43.3171	
8.31338	-18.0933	10.4051	
8.32138	-44.9838	-16.7966	
8.33018	-38.2581	-32.6483	
8.34468	-1.4415	1.99423	
8.34745	-2.92812	8.25745	
8.40612	11.0444	-50.8973	
8.41989	-13.7805	9.51615	
8.43719	-0.909376	1.58852	
8.51331	-14.3013	8.98578	
8.5283	-6.61287	-51.6466	
8.53583	42.5677	-0.45943	
8.62496	-40.9345	3.70759	
8.62747	-43.0588	-24.787	
8.703	11.4198	5.92259	
8.71788	19.4969	-48.8078	
8.75774	5.00958	-52.0506	
8.79156	16.2019	-49.7112	
8.79279	37.8633	5.19018	
8.80773	-37.6878	7.72013	
8.82697	1.39032	0.0104766	
8.82976	-13.9717	10.5957	
8.84255	22.1102	9.19504	
8.87226	-16.8036	-47.6149	
8.88629	23.305	-47.5786	
8.90672	16.2358	4.56101	
8.9215	13.5657	-50.4634	
8.92883	44.6849	-5.20604	
8.93029	41.6449	1.19705	
8.94674	2.242	10.0328	
8.95579	-2.57553	4.77302	
8.95709	43.3841	-27.3748	
8.96023	9.26905	9.96454	
8.96126	9.42753	-51.036	
8.9813	29.9584	10.633	
8.98847	34.1027	-42.0679	
8.99921	12.3673	4.95333	
9.0095	-14.8104	9.39346	
9.0184	44.9516	-16.8525	
9.04333	-1.96599	3.20998	
9.06608	-44.8069	-19.6472	
9.06841	-33.5001	-37.9362	
9.09863	10.5633	7.44057	
9.10929	-2.5819	6.5247	
9.10993	19.1978	7.2586	
9.12348	45.5328	-11.7707	
9.12526	-28.6455	-41.8493	
9.13171	-2.25985	9.53535	
9.15452	13.945	3.6484	
9.19522	46.0158	-9.13117	
9.21179	-1.94779	11.8006	
9.24005	24.8381	10.1892	
9.24445	27.6125	11.2947	
9.24694	-8.64191	-51.1491	
9.28619	2.3758	-0.520113	
9.28989	-11.2112	-50.1946	
9.32389	-34.9085	-36.6241	
9.34177	-18.5948	11.1732	
9.353	-5.02726	-51.9001	
9.37783	4.26781	0.817377	
9.4003	-19.9591	11.701	
9.423	-42.5389	1.66468	
9.43832	40.2963	-34.7527	
9.44303	-14.4193	10.1982	
9.48627	-15.5375	9.77979	
9.51332	-24.7349	-44.2928	
9.53417	32.9844	8.79864	
9.56263	36.3443	-40.1441	
9.59213	-31.3149	-39.8253	
9.61703	15.4666	3.82605	
9.63311	5.73877	-51.923	
9.66589	11.151	6.90836	
9.69256	2.88508	7.11721	
9.69769	35.7123	6.71662	
9.70208	3.13627	-52.0794	
9.708	23.0643	9.60319	
9.71421	-40.0677	5.733	
9.7871	8.18818	-50.8811	
9.79516	-31.8879	11.9948	
9.80609	-1.89974	10.9165	
9.8144	-1.02614	1.8917	
9.83558	9.05963	11.0827	
9.8393	27.5114	10.7715	
9.84921	42.2479	-29.3595	
9.85303	45.113	-9.91017	
9.9354	21.5036	8.7084	
9.94039	-15.0725	-48.2334	
9.96601	43.5685	-23.783	
9.99643	-1.63596	3.50373	
9.99877	-12.4649	-49.421	
10.0044	-2.24317	6.58899	
10.0245	3.0635	5.97317	
10.0282	-9.95026	-50.5245	
10.0785	-3.57178	-51.9434	
10.0803	41.9027	-1.48534	
10.0921	18.0663	6.36929	
10.1148	3.92899	2.05697	
10.1195	-2.16438	8.45642	
10.1608	13.3001	4.24773	
10.1863	9.79331	-50.378	
10.239	38.1085	-38.0687	
10.2404	0.541758	-52.1786	
10.2495	27.0452	-45.91	
10.265	12.1702	-50.1571	
10.2898	-5.73255	-51.5022	
10.2966	40.4482	1.43852	
10.3048	37.328	4.84902	
10.3262	2.04438	9.65094	
10.3402	-43.9082	-0.690581	
10.3505	-14.2142	11.6312	
10.3875	-1.93007	11.598	
10.3916	-4.36023	-51.565	
10.3988	43.1565	-15.5936	
10.4233	2.82426	6.87054	
10.438	-44.1611	-23.1243	
10.4531	27.4837	9.99877	
10.4618	42.9819	-11.161	
10.4797	-2.2099	7.27078	
10.5205	-33.4684	-37.5444	
10.5227	43.6215	-6.24765	
10.5278	-2.09537	9.23306	
10.5366	-27.9095	-42.2114	
10.5557	42.3751	-3.1018	
10.5709	-14.5065	10.8895	
10.5719	-36.4086	9.60397	
10.5931	11.8643	5.93155	
10.6004	39.5043	-35.5534	
10.6038	19.1597	7.02915	
10.6063	-15.2996	10.3148	
10.6242	18.7475	-48.6055	
10.6392	42.9951	-20.7996	
10.6789	-45.7708	-16.3989	
10.7105	23.7695	-47.1967	
10.7149	-45.406	-5.17146	
10.7163	8.96247	10.3474	
10.7449	-43.2603	-25.7534	
10.7804	33.0543	-42.5385	
10.7843	11.3606	6.66626	
10.7851	1.2478	-1.84359	
10.7998	10.4858	8.16717	
10.8002	1.80714	10.8196	
10.82	1.83214	-51.581	
10.8646	-37.5707	-33.264	
10.8648	-2.25963	9.79378	
10.8807	0.344145	-0.793552	
10.8927	-2.19343	6.50683	
10.928	-29.5957	-40.5658	
10.9336	-1.78197	4.417	
10.9395	-8.77452	-50.1381	
10.9421	-2.28779	8.54177	
10.958	-1.3317	2.79771	
10.9695	12.3368	5.17189	
10.974	10.8986	7.31282	
11.0288	4.41269	-50.7577	
11.0316	-36.3547	-34.5363	
11.0332	42.281	-24.644	
11.0447	14.7863	3.26145	
11.0726	-0.991974	-51.0067	
11.0781	25.2664	9.19144	
11.0992	-0.621616	0.3482	
11.1046	18.0075	5.99097	
11.1293	-15.9254	-47.1609	
11.1296	35.3597	-40.5057	
11.1346	-14.2719	11.2022	
11.1347	-11.1027	-49.1801	
11.1348	40.8371	-2.05588	
11.1361	7.56136	11.3815	
11.1476	42.1842	-18.3268	
11.2072	34.4057	6.16372	
11.2138	-2.49128	7.57376	
11.2448	-15.1301	10.4943	
11.258	2.07068	11.4849	
11.2584	-14.6943	10.6572	
11.2598	20.7755	7.70952	
11.3412	39.905	-32.5553	
11.3653	-40.9861	-29.1425	
11.3657	-24.9852	-43.1029	
11.3858	41.1447	-27.579	
11.3941	4.82164	-1.14511	
11.4249	29.9652	8.48483	
11.434	-13.5916	11.5748	
11.4394	-27.2095	-41.9352	
11.4474	-2.40334	6.65447	
11.4484	41.0234	-6.69613	
11.459	-3.12674	8.6605	
11.461	37.8983	-36.9189	
11.4958	10.8822	6.57853	
11.5224	-38.7594	-31.7961	
11.5278	-3.87887	9.89095	
11.5371	-4.80041	11.6066	
11.5567	-15.9791	10.7178	
11.5617	9.49842	8.6352	
11.5888	41.3276	-22.1854	
11.5913	30.018	-43.6543	
11.5919	4.97554	0.897919	
11.5963	2.87602	10.1341	
11.6051	2.99496	7.74719	
11.6197	8.16083	9.82616	
11.6208	-13.0404	-47.7894	
11.6276	10.0225	7.61974	
11.6296	4.59351	-2.49603	
11.6707	41.0043	-25.7204	
11.6771	10.2199	-48.9264	
11.6908	-21.3504	-44.285	
11.7044	18.9629	6.23028	
11.7253	3.8287	10.9933	
11.7358	14.8329	-48.7618	
11.762	-17.9825	11.7257	
11.7663	-12.7653	11.3977	
11.7702	3.13049	8.47282	
11.7741	25.5775	-45.7764	
11.7797	40.1083	-14.3584	
11.7895	0.26656	-2.08425	
11.8095	39.2297	-3.88194	
11.8133	-15.4888	10.5231	
11.8143	-13.4131	10.9748	
11.8197	-46.4071	-10.8008	
11.8205	-18.0778	-45.408	
11.8325	-14.1118	10.7133	
11.8381	-46.188	-13.8273	
11.875	40.3557	-16.697	
11.8866	17.1621	4.63531	
11.9047	-11.7148	11.6547	
11.911	33.4359	-41.4463	
11.9243	4.11135	-3.59385	
11.9359	11.3889	5.03937	
11.9393	-1.411	1.65949	
11.9424	-3.2859	-48.4475	
11.9476	40.2802	-18.9769	
11.9627	3.18744	-48.9965	
12.0349	0.0603335	-48.8481	
12.0374	-45.5853	-18.7305	
12.0377	3.73204	8.43182	
12.0385	-7.61288	10.6633	
12.0425	18.2212	-47.6332	
12.0605	-9.12121	11.776	
12.0773	-12.5325	10.7074	
12.0807	-3.89818	6.52292	
12.0977	-35.671	-34.4546	
12.0994	7.47495	8.74821	
12.1145	26.9532	8.23222	
12.1175	38.1233	-33.6113	
12.1262	-32.9868	11.9021	
12.128	4.40564	8.55415	
12.1785	3.93078	6.48871	
12.1845	36.7187	-0.289266	
12.2018	35.1027	2.64991	
12.214	1.43144	-3.85737	
12.2197	4.17229	5.41732	
12.2197	5.54287	8.44967	
12.223	34.9256	-39.6413	
12.2281	-6.79803	-47.8709	
12.2322	39.2572	-24.9819	
12.2399	37.4466	-8.93942	
12.2578	-16.0096	10.6748	
12.2585	10.2621	5.4978	
12.2779	-11.1583	10.3571	
12.2851	38.5963	-28.1395	
12.3083	32.3079	5.44348	
12.3219	38.0142	-21.0836	
12.3226	-9.76145	-47.0005	
12.3413	-39.283	-30.8587	
12.3454	31.8255	-41.7104	
12.3592	-14.5958	-45.7379	
12.368	-12.348	9.89281	
12.3725	-14.8389	10.2028	
12.3984	4.57026	3.71658	
12.4277	7.11029	7.22998	
12.4537	36.2893	-6.15568	
12.4561	10.4852	4.20479	
12.4568	13.7694	2.19491	
12.4738	35.7325	-2.30539	
12.4999	-38.1585	-31.6295	
12.502	28.738	-43.0871	
12.5172	-13.4207	9.5888	
12.5201	-5.77314	5.68826	
12.5342	-25.9677	-41.1925	
12.5391	-2.88724	4.21329	
12.5424	36.7056	-15.3497	
12.5427	23.4323	-45.3337	
12.5485	-0.44102	-2.32136	
12.5493	8.02473	6.33938	
12.5614	-3.74234	4.73898	
12.5801	5.34456	5.93441	
12.5878	-7.49767	6.51754	
12.6027	9.03475	5.19424	
12.6227	17.8677	-46.8198	
12.6257	-31.0572	-37.7964	
12.6289	36.7992	-26.4679	
12.6381	5.32777	-0.850681	
12.6453	-39.9978	6.73379	
12.6487	15.7348	2.21055	
12.691	35.7862	-35.7118	
12.6952	8.06961	5.19542	
12.7048	35.3437	-12.7855	
12.7086	10.7275	2.94941	
12.7094	-41.6148	4.72054	
12.7106	-35.1505	10.7149	
12.7121	-32.5514	-36.5885	
12.7316	-2.30151	2.3591	
12.7335	34.6497	-38.0747	
12.7345	-12.4624	8.8417	
12.7447	33.9637	-0.153602	
12.7466	3.83422	-4.7983	
12.7582	19.1005	4.84151	
12.7633	-43.431	-25.1682	
12.7663	32.4671	2.74058	
12.7796	35.5235	-24.1748	
12.7805	20.3563	5.2797	
12.807	-7.60547	-45.4481	
12.8121	35.6742	-32.9761	
12.8133	7.97055	-46.2571	
12.8202	33.6406	-4.95555	
12.8221	35.5233	-29.2941	
12.8375	-12.1963	-44.492	
12.8515	33.1606	-2.49067	
12.8681	34.5537	-18.922	
12.8724	28.6952	5.85157	
12.8724	-16.7445	-43.0007	
12.8869	22.6052	5.82932	
12.899	-2.03763	-45.4239	
12.9417	-0.882914	-2.06517	
12.9427	6.16336	3.88141	
12.948	-9.33004	6.53134	
12.949	-20.1675	-41.6989	
12.9599	33.7873	-22.4558	
12.9723	-16.2506	10.5566	
12.981	-43.8084	1.34278	
12.9932	-12.4539	8.47383	
12.9937	-46.3881	-8.51794	
13.0017	18.5039	-45.7218	
13.0017	32.7842	-10.0095	
13.0086	32.8964	-16.9062	
13.0145	33.5931	-28.0479	
13.0228	31.5959	-0.906295	
13.0316	32.2584	-7.54898	
13.0484	-10.4934	7.32744	
13.0532	-42.2527	-26.8104	
13.057	-22.9916	-40.7345	
13.0818	25.0159	5.69917	
13.0932	-4.20471	3.21621	
13.1	5.49853	-4.40899	
13.1007	33.2948	-33.3684	
13.1105	-15.599	9.92001	
13.1222	28.9796	3.32997	
13.1301	-9.70415	-43.0564	
13.1363	31.3864	-14.1387	
13.1404	-4.14982	-43.7681	
13.143	-38.5508	8.23516	
13.1586	6.26855	-2.10193	
13.1677	-14.7014	-42.0874	
13.1931	32.0475	-31.228	
13.1961	31.8826	-37.7539	
13.197	30.6806	-11.2748	
13.1988	30.3076	-7.64475	
13.1993	-29.8961	-37.4374	
13.2108	-40.1357	-28.9508	
13.2111	23.2012	-42.9393	
13.2201	2.532	-43.8437	
13.2272	29.9415	-15.8833	
13.229	-35.8136	-32.6316	
13.244	8.08833	0.741267	
13.2526	4.83541	-5.3244	
13.2597	11.8509	-45.1191	
13.2715	18.8995	3.54935	
13.2765	1.20561	-5.30352	
13.2804	-27.0926	-38.8547	
13.2845	-1.18082	-2.66699	
13.3309	5.17308	-42.9178	
13.3447	14.896	0.0818173	
13.347	28.2739	-4.78859	
13.3519	28.3794	-24.7524	
13.3607	28.0184	-14.1117	
13.3678	-11.5019	-40.3979	
13.3717	18.2388	-43.0644	
13.376	20.9031	-42.9737	
13.3887	-45.9351	-4.54252	
13.391	-12.8934	7.86448	
13.395	27.2558	-0.264081	
13.4031	27.93	-28.3007	
13.4267	29.0087	-36.8178	
13.4281	-15.9156	-39.6878	
13.4397	18.3396	2.60813	
13.4583	-4.05509	-40.7225	
13.4639	25.0876	-40.0135	
13.4721	-17.5138	11.271	
13.4784	26.232	-12.6822	
13.4877	26.3617	-28.0151	
13.488	-9.4531	-39.3664	
13.4906	27.1801	-38.1645	
13.5033	22.9354	3.31353	
13.5042	26.5142	-32.2736	
13.5046	13.3608	-0.545141	
13.5063	9.39201	-43.4997	
13.5133	10.4173	-0.455391	
13.522	26.8901	-34.9923	
13.5237	-22.1128	-38.379	
13.526	25.5462	-8.7205	
13.5262	25.3123	-21.0677	
13.5272	25.3453	-16.8301	
13.5295	25.2937	-25.0312	
13.5378	-11.7132	6.89498	
13.5497	-8.62333	3.99197	
13.5544	1.12117	-41.1368	
13.5705	24.7339	1.0917	
13.5731	7.34047	-2.36265	
13.5783	24.4199	-27.8438	
13.5839	8.79617	-1.19819	
13.5881	14.5006	-42.5546	
13.5891	-19.4848	-37.8326	
13.5977	21.0468	-39.596	
13.6007	-28.0174	-36.796	
13.6026	-1.07467	-4.36743	
13.6063	-2.98412	-0.851945	
13.6124	24.2472	-3.3727	
13.6199	-6.85908	2.59405	
13.6341	23.11	-33.1082	
13.6394	-15.7064	-37.3679	
13.6528	-3.40206	-38.5933	
13.6548	22.6582	-29.6114	
13.665	-12.2276	-37.1191	
13.6785	7.31994	-40.5522	
13.6855	-14.0247	7.70458	
13.7082	19.2707	-38.0148	
13.7133	-10.7394	5.42734	
13.7168	21.3604	-25.6523	
13.7245	21.7095	-20.354	
13.7428	21.8094	-16.278	
13.7428	-7.59044	-36.6437	
13.7471	4.10901	-6.33181	
13.7486	22.1918	-7.62555	
13.7584	18.9711	1.32988	
13.7628	12.6081	-2.04293	
13.7686	11.812	-40.7443	
13.7755	-4.51801	-36.6703	
13.7758	21.5697	-12.3531	
13.7771	-29.9141	-35.1549	
13.7791	-2.76785	-2.20871	
13.7866	21.3737	0.77572	
13.7914	6.5083	-38.1649	
13.7978	17.5538	-36.7723	
13.7979	4.03912	-37.9291	
13.8085	1.72248	-37.7512	
13.8089	21.4261	-2.47275	
13.814	19.1406	-26.045	
13.8141	21.412	-4.89092	
13.8243	-32.2997	-33.8006	
13.8276	18.1981	-29.2452	
13.8289	15.9881	-36.4916	
13.8432	18.4439	-26.8355	
13.8467	14.5223	-38.778	
13.8575	-2.30983	-3.4981	
13.8588	-15.3027	-34.9262	
13.8857	19.4924	0.152784	
13.8881	7.56707	-4.58857	
13.8947	-26.429	-34.8546	
13.8952	20.1455	-6.52367	
13.8969	3.75274	-36.0621	
13.8987	9.83518	-37.7322	
13.8993	17.7876	-23.3904	
13.9056	18.9327	-16.5987	
13.9063	13.6997	-35.1049	
13.9096	9.37604	-3.65655	
13.9122	20.1317	-3.75147	
13.9189	-4.519	0.15182	
13.9252	-22.7374	-34.6967	
13.9262	15.8061	-28.4855	
13.9309	11.7438	-35.7931	
13.9441	6.73605	-35.5796	
13.9459	19.5048	-1.7701	
13.9493	13.8397	-3.28626	
13.954	-2.08552	-34.7608	
13.9547	17.5333	-19.6739	
13.9564	13.5036	-31.9437	
13.958	-43.6157	-23.8872	
13.9649	11.9054	-3.82994	
13.9897	18.0128	-2.13597	
14.0039	-10.2328	-33.3479	
14.008	16.4955	-2.91398	
14.021	17.7279	-11.3294	
14.0286	18.3029	-3.14135	
14.0314	4.19414	-33.3552	
14.0539	15.1585	-21.2535	
14.0564	16.9074	-13.4217	
14.0585	18.0071	-5.85273	
14.0624	-0.226453	-32.8252	
14.064	-4.58955	-32.7002	
14.0668	8.89106	-32.1229	
14.0677	13.6716	-24.4109	
14.0689	-15.0236	-32.473	
14.0717	10.6525	-4.74452	
14.075	-18.6853	-32.4509	
14.0752	11.6663	-28.1219	
14.0794	17.1701	-7.70796	
14.0973	16.2512	-4.66817	
14.115	16.3647	-9.91374	
14.1302	16.2107	-5.88124	
14.1508	-13.7913	6.57585	
14.1575	-1.57589	-5.57227	
14.1609	14.3147	-17.5185	
14.1641	4.64724	-30.4264	
14.1661	15.65	-7.82432	
14.1684	8.91305	-27.9033	
14.1739	-8.21313	-31.3352	
14.1835	12.4375	-21.3662	
14.2053	14.199	-6.96121	
14.2141	14.6611	-11.5876	
14.2172	-27.0561	-31.4087	
14.2188	14.6947	-9.29558	
14.2199	-17.6643	10.4489	
14.2255	0.579856	-29.8902	
14.2455	-5.1727	-1.27033	
14.2505	13.775	-14.0423	
14.2516	8.2276	-6.08932	
14.2576	-15.5532	7.8185	
14.2629	9.2579	-24.0104	
14.2638	5.95784	-27.3877	
14.2644	3.32624	-28.4811	
14.2685	-38.2015	-28.3786	
14.271	13.7854	-10.3377	
14.2882	12.7543	-7.56866	
14.2893	-15.4778	-29.7049	
14.2912	-33.3278	-30.608	
14.2914	-8.80832	1.549	
14.3276	-29.6469	-30.431	
14.3328	-3.80806	-28.6697	
14.3434	-23.1855	-29.5271	
14.3527	12.4846	-12.5485	
14.355	-16.5272	8.78549	
14.3619	-12.7172	5.34097	
14.3722	9.82598	-19.369	
14.3735	-36.0566	9.85975	
14.3781	-7.57929	-28.3494	
14.3812	9.20068	-7.27958	
14.3897	-19.1793	-28.6205	
14.3949	11.7937	-10.9879	
14.4028	-46.4398	-14.2318	
14.4083	2.05885	-26.0641	
14.4312	-33.6608	10.6802	
14.4377	-40.3045	-26.2821	
14.4436	10.7809	-9.31041	
14.4453	0.325505	-7.30124	
14.4497	-10.2397	2.60714	
14.4502	1.05552	-8.02787	
14.4514	7.32799	-20.9788	
14.4532	-7.86034	-0.0605144	
14.4533	10.9565	-12.3392	
14.5017	-5.42859	-2.98985	
14.508	7.52763	-7.64534	
14.5083	4.53206	-22.4448	
14.5211	9.71129	-14.1637	
14.5243	-5.68929	-25.9667	
14.5319	-17.1043	-26.4985	
14.5338	-2.40595	-25.2214	
14.5501	-2.70821	-6.10527	
14.5562	-44.6982	-20.966	
14.5613	-12.3342	-25.8044	
14.5645	-44.9487	-1.43609	
14.5654	-24.9589	-26.903	
14.5678	-38.4384	7.79613	
14.5688	-28.1594	-27.2992	
14.5821	-31.261	-28.3743	
14.5902	-45.4848	-16.9453	
14.603	-8.39752	-25.085	
14.6105	8.46499	-10.4187	
14.6222	4.58558	-8.55933	
14.6222	-3.47981	-5.61936	
14.6301	-46.5586	-11.504	
14.631	2.91858	-8.35977	
14.6316	6.79734	-8.67031	
14.6455	-21.7375	-25.3386	
14.6554	8.13822	-11.8487	
14.6574	-35.0644	-27.9767	
14.6581	5.74612	-18.0096	
14.6803	-0.126479	-22.1338	
14.6951	-29.9686	11.5711	
14.7049	-8.31473	-1.42997	
14.7102	-9.73937	-23.473	
14.7164	-27.0426	-25.2114	
14.7313	-5.14856	-5.06516	
14.7408	7.00431	-12.268	
14.7624	-3.17437	-21.9284	
14.7639	-16.9845	-23.0388	
14.7655	-12.3622	3.72278	
14.7676	5.93401	-10.2017	
14.7693	-31.5711	10.9936	
14.7745	5.72867	-15.0715	
14.7823	-24.7871	-23.749	
14.7876	-29.2355	-24.7155	
14.8067	-6.79249	-21.7693	
14.8095	-14.0559	-22.2047	
14.8097	-19.8396	-22.5885	
14.8227	-42.8261	-23.2644	
14.8321	1.50769	-18.4987	
14.8514	-11.3719	-21.3623	
14.8594	-40.2453	6.42713	
14.866	-1.5235	-8.07765	
14.8773	-7.06581	-4.60066	
14.8872	4.82833	-13.5905	
14.9091	-27.8855	-22.4528	
14.9154	-23.448	-21.355	
14.9187	-0.138659	-8.56862	
14.92	-23.9437	11.7246	
14.9259	-30.4455	-22.9496	
14.942	-35.1305	-25.2516	
14.9494	-7.06376	-5.30504	
14.9552	-9.10573	-2.83882	
14.9679	-19.1853	-19.8327	
14.973	-11.7778	2.29962	
14.9863	3.72531	-12.4352	
14.9936	-10.4771	-0.377988	
15.0058	2.81904	-14.435	
15.0177	2.97107	-10.9396	
15.019	-33.2776	-22.9359	
15.0266	-14.9351	-18.6567	
15.0271	-3.51224	-18.4907	
15.0324	-41.9915	4.16283	
15.0401	-8.43014	-4.74439	
15.0439	-14.083	4.06432	
15.0441	-20.4512	11.0931	
15.0499	-29.8136	-20.6992	
15.0906	-19.0793	9.6229	
15.1005	-6.85683	-17.3948	
15.1105	-0.462315	-15.4484	
15.1282	-7.7712	-6.49423	
15.1325	-10.2921	-16.9519	
15.1479	-22.4505	-17.011	
15.1526	-4.70658	-8.9375	
15.1579	-10.5879	-3.46937	
15.1587	-1.7167	-9.41224	
15.1606	-18.3343	-16.199	
15.1707	-12.5647	-16.4086	
15.1785	-30.9452	-19.0928	
15.1905	-2.96006	-15.8581	
15.1946	-15.9972	5.18324	
15.2005	-5.34273	-15.8657	
15.2174	-43.5286	-19.6786	
15.2199	-0.559998	-10.1075	
15.2333	-30.9911	-18.0076	
15.2357	-26.7613	10.7416	
15.2431	-13.7678	2.74735	
15.2542	-11.8049	-3.43532	
15.2585	-12.0081	-1.2163	
15.2745	-22.9297	10.6788	
15.2771	-12.2374	-2.71215	
15.2784	-23.7691	-14.4381	
15.2788	-4.03209	-14.7973	
15.2896	-0.228602	-11.1825	
15.2978	-12.0363	-4.12237	
15.3077	-16.3687	-13.6273	
15.3155	-3.81188	-10.3744	
15.3162	-11.1697	-14.0444	
15.3175	-8.67574	-14.0153	
15.3194	-7.74559	-9.36674	
15.3354	-4.83119	-10.8593	
15.337	-0.639646	-12.2017	
15.3425	-19.686	-12.4325	
15.3453	-9.29954	-7.34482	
15.3456	-2.95472	-10.6385	
15.3457	-5.30121	-13.8406	
15.3497	-29.9139	-14.1088	
15.3498	-2.52464	-13.6229	
15.3612	-6.82477	-11.7199	
15.3626	-4.12988	-13.5293	
15.3701	-4.1328	-11.1873	
15.3715	-6.40873	-12.7106	
15.3733	-6.11871	-12.0502	
15.3785	-7.85584	-12.3594	
15.3786	-10.3592	-13.0397	
15.3792	-13.1319	0.430894	
15.3802	-43.5574	1.25328	
15.3853	-5.12535	-12.9842	
15.3878	-5.49925	-12.2296	
15.3882	-24.8723	-11.4365	
15.3987	-13.0429	-5.47576	
15.3998	-28.7747	-12.0401	
15.403	-19.2373	7.89946	
15.4044	-3.63346	-12.6685	
15.4044	-12.2493	-12.5174	
15.4054	-3.21821	-11.6655	
15.4108	-14.1456	-4.1834	
15.4166	-13.7503	-11.9391	
15.4181	-4.66169	-11.855	
15.419	-12.402	-6.26135	
15.4195	-17.1341	-11.0774	
15.4216	-39.4968	5.72478	
15.4249	-31.7564	-12.7512	
15.4293	-34.477	-15.4391	
15.4319	-21.9288	-9.84738	
15.4371	-10.3755	-11.9434	
15.4424	-46.1264	-8.40889	
15.4483	-38.2102	-19.2693	
15.4515	-13.8988	0.655729	
15.4549	-14.9243	1.86865	
15.4635	-19.1764	-9.51944	
15.4684	-15.4125	-5.95074	
15.4718	-16.0108	-9.72303	
15.4748	-9.53763	-10.1869	
15.4782	-26.7482	-8.714	
15.4784	-40.6177	-19.9269	
15.4784	-14.7508	-7.07346	
15.4788	-45.6587	-5.30286	
15.4812	-34.1357	-12.56	
15.483	-13.8281	-10.1771	
15.4866	-17.3577	-8.04935	
15.4869	-33.0275	6.89489	
15.4898	-29.0856	8.18359	
15.4908	-18.4428	6.02495	
15.4953	-14.4072	-7.98211	
15.4959	-17.0217	-6.81517	
15.496	-11.0433	-10.1441	
15.4963	-14.034	-7.71398	
15.5021	-18.9092	6.40828	
15.5027	-10.7179	-9.29296	
15.5041	-29.9117	-8.64635	
15.5083	-12.1426	-9.40097	
15.5154	-31.2159	7.15373	
15.5176	-44.9891	-2.61891	
15.534	-18.843	-6.70648	
15.5348	-36.4765	-14.4136	
15.5398	-24.1528	-6.17089	
15.5407	-26.3353	-6.09615	
15.5582	-16.573	-4.05148	
15.5617	-34.4069	5.50548	
15.5619	-32.5989	-7.35025	
15.5667	-30.7711	-5.23641	
15.57	-26.6385	7.89905	
15.5724	-20.8874	-5.70642	
15.5744	-29.7692	2.17966	
15.5748	-17.3654	-4.51614	
15.5834	-19.3652	-5.34095	
15.5868	-36.5734	4.71535	
15.5961	-23.0007	7.7791	
15.5965	-31.3759	-1.99418	
15.5992	-39.228	-16.7453	
15.602	-26.0826	-1.00373	
15.6028	-27.2012	1.76179	
15.6046	-24.7324	-2.74371	
15.6052	-44.1246	-16.2469	
15.6081	-33.5611	-3.15834	
15.6088	-34.3115	1.40304	
15.6191	-17.9866	-3.89478	
15.622	-31.6961	1.41069	
15.624	-17.5632	2.70281	
15.6264	-35.1366	-2.22011	
15.6327	-25.2822	-0.252132	
15.6423	-18.7845	-3.5454	
15.6458	-23.8018	5.53029	
15.646	-17.2108	-1.8659	
15.6468	-26.0614	3.06312	
15.6488	-17.1545	1.20774	
15.6605	-21.2359	4.78644	
15.6623	-24.8577	0.660602	
15.6627	-37.5987	0.417335	
15.6636	-38.4851	3.44824	
15.664	-24.2521	-0.324043	
15.6654	-18.8698	-2.67572	
15.6679	-18.3848	1.98167	
15.668	-37.3831	-4.3906	
15.6705	-16.9041	-0.336385	
15.6755	-24.8184	1.62137	
15.6814	-45.9722	-11.8483	
15.6815	-21.1657	-1.63251	
15.6824	-24.5193	2.60622	
15.6833	-23.1495	-0.625999	
15.6836	-21.7691	3.51708	
15.6874	-23.8347	0.155668	
15.6933	-22.1317	-0.564888	
15.6968	-22.0953	0.786292	
15.7173	-39.2819	-7.32733	
15.7372	-41.2452	2.06988	
15.745	-40.1	-11.7428	
15.7787	-39.6326	-0.546086	
15.7867	-40.3831	-5.99852	
15.79	-41.9831	-15.073	
15.8202	-45.4385	-14.6327	
15.9217	-44.4039	-5.02181	
15.9227	-42.3811	-4.05632	
15.939	-42.9154	-9.57783	
16.0173	-43.5171	-11.9567	
16.0304	-44.8295	-9.26112	
16.0495	-44.338	-13.9121	
8.95298	-16.6189	43.2481	
-5.01282	15.249	34.3814	
10.2462	-1.90309	13.2294	
10.0032	7.0828	30.507	
3.66853	-11.2081	20.691	
-6.3078	-1.429	14.2061	
4.28853	-34.1505	41.79	
-6.45985	9.08431	25.0842	
12.3646	-31.6072	12.3973	
8.02713	-32.8397	39.496	
8.2808	12.4912	28.5242	
7.7908	-2.20888	24.8551	
-0.00912235	16.2483	37.7059	
-0.0711984	-9.0015	34.0669	
7.00717	-23.1904	35.5317	
7.99106	-13.6672	33.3529	
9.33142	-12.2375	22.1019	
3.6026	-28.0403	39.9968	
3.17814	-19.421	33.3706	
11.4487	-21.0163	12.8737	
3.75122	-4.6197	27.4626	
1.11972	-16.5682	38.3786	
8.68756	-32.5972	52.0047	
7.90187	6.81516	14.6636	
-0.61764	-12.3102	27.8142	
9.77385	-13.8896	13.111	
8.35534	5.77973	19.2598	
-6.01631	11.0813	32.5643	
5.10637	-3.34802	30.9479	
11.1897	9.53337	25.6448	
8.62142	-38.0789	46.9864	
-3.28396	18.7478	33.6317	
12.6103	-26.6133	43.7334	
7.96301	10.477	26.5553	
9.83298	12.136	34.1008	
-5.59085	7.49073	22.8274	
7.87578	-5.05474	29.1362	
8.36191	-25.6166	49.155	
-3.96436	13.3578	28.074	
5.87531	-14.4002	28.4871	
-2.65604	15.5877	30.1002	
9.04276	14.3386	31.1961	
0.570666	17.3268	34.7067	
11.6195	-9.26583	14.5654	
10.6801	1.90669	24.3332	
-1.63658	13.2055	34.0223	
-2.70633	2.73478	14.9232	
11.4396	-33.9748	47.4326	
-6.84177	1.43176	23.631	
10.1461	0.495415	17.9608	
-7.63344	9.51927	29.1489	
-4.61881	3.86046	25.3571	
8.29269	-12.7917	24.0721	
12.3686	-30.4314	44.4441	
5.79097	-19.2146	45.4102	
-4.68076	6.57229	29.0356	
7.48999	8.87932	30.0801	
2.66642	-28.7536	44.3427	
-1.10805	-12.928	30.3975	
-3.5682	3.6318	20.8191	
6.21933	5.14126	24.2042	
-8.1263	4.46762	24.8726	
-4.85199	-2.65651	15.5156	
2.19434	-24.6192	43.0573	
12.2222	-26.7558	40.1646	
4.2544	-37.4333	46.4359	
8.43906	-13.9953	18.2698	
6.53233	-2.53862	27.0606	
3.19011	-26.5938	39.6557	
7.69051	-12.3803	37.3212	
-1.25442	19.4603	37.6816	
8.25109	-1.74377	20.4687	
9.17396	-35.6003	51.0719	
1.45566	-8.83879	25.3279	
6.04021	-14.0724	23.1122	
10.0741	14.0876	33.6996	
6.86656	2.06648	16.9771	
10.7669	-28.6442	50.6984	
9.96428	8.32739	23.71	
-0.969863	15.7826	31.8478	
-5.04157	3.38231	15.537	
10.4316	2.67567	25.4	
-4.96579	15.4636	30.3534	
5.66357	-6.67286	14.4071	
-1.96021	19.9483	35.1348	
2.68285	-16.3522	29.3575	
-3.89906	7.11839	28.0802	
13.8467	-19.6928	12.5804	
10.6626	-34.0407	51.1462	
4.00229	-11.4039	40.0589	
-6.31564	3.62215	17.7911	
3.90214	-18.6925	43.9379	
4.54537	-6.88155	35.7706	
11.1397	12.1181	28.4269	
6.58885	-8.51515	34.3689	
1.91362	-6.63989	27.4744	
9.38209	0.961999	23.0339	
5.49031	-6.88035	17.7702	
14.3992	-26.5806	12.3993	
-0.188668	-8.56934	29.5795	
3.59402	-13.4427	41.3503	
11.3672	7.31189	23.9586	
8.89399	-16.9357	34.9626	
8.57483	11.2436	26.9766	
5.89389	-11.8269	14.7047	
5.1439	-13.1518	20.5369	
5.23176	-34.6723	50.3009	
-3.91707	17.8044	35.1424	
7.27991	-14.2645	41.9175	
10.9224	-3.72014	16.3119	
10.578	1.09763	15.3955	
5.80781	-31.6911	39.6971	
6.55652	3.99093	20.5296	
5.48895	-27.0914	37.6619	
-1.51876	14.3603	36.445	
10.9687	-22.4561	46.3876	
-7.8571	1.97066	20.7239	
2.38941	-5.58839	33.7825	
0.93051	19.8024	36.5742	
-3.66083	12.2306	34.3738	
11.5901	7.80283	26.2644	
2.2563	-31.9905	45.9763	
10.6667	-36.5726	46.3822	
8.60311	13.1864	33.3583	
2.62534	-35.8117	46.3634	
-6.05124	13.0125	28.7477	
6.36984	3.76664	15.8209	
8.07871	6.28818	28.4358	
9.11508	8.34226	12.5626	
-4.1183	8.69357	30.7986	
-1.96719	12.2853	31.0562	
12.4319	-28.5336	41.0572	
8.09347	-9.32179	31.9414	
12.1267	12.531	30.9062	
0.00742559	18.5095	34.2526	
6.9167	4.06086	24.7644	
11.2942	4.62337	21.7637	
-3.46171	15.8452	36.5567	
4.43773	-29.7503	48.4424	
10.3029	-33.4929	41.0741	
11.2002	-20.7578	44.5604	
-1.62691	1.76866	13.6391	
-4.41174	8.1395	23.7601	
-7.26045	-0.144852	18.2829	
2.29348	-20.0489	42.4701	
10.8656	-18.6049	38.7418	
3.07947	-36.1713	44.598	
6.21302	-14.2498	24.5386	
11.4135	-19.8487	40.0929	
-6.76939	11.894	28.9173	
7.6474	12.0073	32.5088	
11.2702	-22.2468	38.125	
5.86809	-3.9652	24.4714	
11.761	-28.2506	39.622	
10.6688	-2.95104	21.2392	
-0.144504	19.808	37.8382	
2.52545	-27.1262	42.4093	
-6.23652	14.1518	31.5968	
6.38886	5.82664	25.4777	
7.98803	8.89286	24.8476	
-7.48184	7.87198	29.8024	
10.155	-12.9441	16.9281	
7.26539	-12.8092	39.8607	
11.2907	-10.3644	15.5822	
11.3848	2.80767	20.521	
-7.09603	0.593547	15.377	
-4.31843	11.4172	26.5474	
-1.43447	13.6917	30.9711	
11.1078	4.71843	14.2416	
10.2552	-8.28082	21.1978	
7.55507	-7.47988	31.1613	
0.0100345	15.4904	34.2266	
10.5151	7.059	15.1509	
7.8564	-28.5968	37.9563	
1.34109	-18.6826	38.8039	
5.56387	-12.2886	16.7101	
1.45185	-11.2514	24.3384	
3.24458	-20.4249	34.4464	
9.21832	-10.6268	23.9751	
-6.33876	-0.792805	19.6805	
10.6183	9.1884	32.0601	
-1.45629	17.3592	32.248	
11.3384	-25.0653	47.6834	
-3.65802	-3.18003	13.456	
-0.550483	-12.6549	34.8532	
-3.39926	9.63965	30.6569	
4.22984	-35.8263	43.0756	
8.65359	-24.0789	36.4668	
-6.5885	-1.28481	16.4034	
7.94272	-11.8056	26.9101	
5.24966	-9.78645	38.4186	
11.6357	10.7815	31.844	
11.2855	-8.21561	16.2926	
1.68275	-5.68912	30.5455	
-0.998143	-10.0861	32.0529	
-0.388741	-2.12424	12.3742	
12.1828	-22.3517	42.4667	
-7.1015	9.96754	27.4697	
4.39554	-9.28893	18.8631	
0.705832	-16.2364	32.7222	
-5.47469	16.09	32.457	
0.580545	-10.6116	25.6328	
-5.24103	4.45902	18.8871	
-6.63974	4.45039	27.2688	
10.5242	-35.6879	43.6705	
-2.90662	10.1474	27.8482	
9.15311	-28.4529	12.2956	
7.3114	2.22473	21.6312	
11.1816	3.93313	17.4818	
-0.182415	-14.3987	35.0343	
6.42462	8.37275	26.7785	
-0.452119	-14.4502	32.7779	
-4.84454	16.9877	32.5545	
10.235	6.47343	19.1175	
5.73976	-8.53549	13.074	
10.1236	-2.95314	23.2528	
5.33571	-7.93197	15.5634	
4.24716	-15.1971	26.6907	
11.422	7.76313	28.2157	
11.4866	-27.8143	48.7048	
4.95011	-12.1851	18.6856	
10.8722	-19.0675	12.0479	
4.19792	-25.426	46.427	
10.9357	13.9715	30.7154	
-2.5275	17.7883	37.4073	
3.58861	-31.227	41.6492	
5.03874	-25.7226	37.0803	
8.69501	-1.47686	18.3432	
7.18456	10.2934	31.0134	
3.41191	-26.9242	45.8175	
1.70616	-7.50517	35.7442	
6.38917	-4.52421	18.7048	
11.1729	-13.1805	12.4385	
10.8481	-31.9728	40.4408	
7.73373	-34.6702	40.5583	
11.6172	-6.41007	13.4578	
10.8213	-4.8817	20.473	
3.84934	-23.1168	45.4498	
-2.98709	2.80099	16.5443	
11.4636	13.3847	33.1581	
7.3866	13.0357	31.1485	
3.27962	-35.064	48.6658	
-3.88398	5.82908	22.2512	
11.4115	-30.7603	49.9928	
-7.85879	7.60363	26.9413	
7.34662	7.48906	23.7174	
-1.01563	14.1957	31.9265	
8.91015	-3.78315	26.6095	
4.67579	-7.09216	22.0637	
0.834353	-16.8624	36.5125	
-1.87652	-2.14862	14.3268	
4.03637	-13.4817	23.4575	
-4.82403	6.45148	21.5047	
-2.4853	-3.52361	12.434	
10.0128	-1.88876	16.3334	
6.24201	7.35826	26.2087	
10.8709	7.03374	12.959	
-2.35101	12.4406	28.7828	
7.69918	1.26037	15.5502	
-6.46149	0.655418	13.0627	
1.07272	18.4042	37.9999	
9.58239	-21.5539	36.226	
1.85309	-22.8753	40.3309	
5.1389	-26.8567	47.8568	
1.81676	-10.0863	37.9494	
-3.29867	3.2661	19.4009	
11.4202	9.6807	29.9705	
6.15438	-3.72088	30.7031	
11.3221	1.50086	21.7625	
9.57044	-24.4654	12.607	
11.1518	2.04939	13.0467	
7.23567	-2.88709	14.3627	
9.48178	-6.84976	25.5695	
-5.96249	9.1308	31.8645	
9.77131	4.38842	27.63	
1.77134	-17.0025	40.2142	
-7.19119	11.4874	29.832	
-7.31928	5.17084	21.8603	
1.15628	-14.2443	26.9141	
6.88414	4.46555	17.8384	
9.1659	-37.1927	49.1025	
-3.00474	-0.60586	17.3558	
11.5434	10.2396	27.2314	
-2.85534	11.9831	33.5676	
4.79724	-15.8833	29.1256	
6.98543	-15.889	32.1608	
-4.03288	13.0116	34.8655	
10.6216	5.83368	28.9406	
-1.28109	17.5952	38.5111	
6.5278	-37.5165	43.8651	
-2.36306	2.66591	12.0773	
4.6777	-18.4557	31.969	
8.06099	-19.8482	34.4972	
-5.55286	15.1658	33.3321	
14.2645	-21.567	12.6296	
0.95562	-14.5228	38.3241	
8.3018	-13.4091	36.6382	
10.4225	6.59173	17.347	
-1.102	19.1115	33.8574	
10.4644	6.80257	21.6741	
