590	591	53.554	28.645	16.785	29.347	0.817
591	592	48.170	28.747	18.200	28.188	0.797
592	593	50.979	28.727	14.752	28.908	0.776
593	594	26.251	32.128	6.314	33.300	0.884
594	595	84.436	27.096	23.552	27.518	0.614
595	596	112.182	26.109	35.012	26.054	0.567
596	597	78.621	27.530	21.993	28.223	0.652
597	598	64.252	28.324	18.772	28.804	0.747
598	599	49.654	29.276	12.572	30.400	0.782
599	600	45.374	29.409	14.210	29.617	0.783
600	601	46.190	29.375	14.695	29.483	0.779
601	602	43.574	29.183	13.706	29.196	0.775
602	603	41.055	29.532	13.939	29.798	0.769
603	604	41.744	29.505	14.836	29.097	0.764
604	605	40.555	29.403	16.184	28.535	0.781
605	606	36.639	29.562	14.398	29.085	0.804
606	607	31.997	30.054	11.387	30.057	0.819
607	608	35.728	29.623	12.935	29.347	0.816
608	609	38.204	29.522	12.379	29.617	0.795
609	610	54.846	27.762	17.373	27.953	0.751
610	611	66.042	26.810	18.927	27.553	0.729
611	612	84.638	25.878	22.910	26.992	0.646
612	613	130.422	24.376	30.000	26.095	0.594
613	614	73.754	26.759	19.489	27.569	0.646
614	615	53.550	27.818	13.435	29.165	0.710
615	616	46.548	28.378	12.838	29.365	0.738
616	617	53.742	27.754	13.412	28.850	0.750
617	618	46.146	28.888	14.121	29.493	0.747
618	619	46.069	28.567	14.040	29.057	0.734
619	620	49.025	28.896	15.714	29.275	0.716
620	621	43.475	29.193	14.543	29.405	0.725
621	622	45.588	29.123	15.759	29.119	0.733
622	623	46.061	29.344	15.520	29.415	0.746
623	624	43.431	29.511	13.754	29.809	0.770
624	625	48.450	28.992	15.515	29.242	0.766
625	626	51.951	28.645	17.204	28.750	0.750
626	627	54.632	28.559	16.951	28.946	0.726
627	628	54.172	28.418	16.594	28.922	0.711
628	629	69.663	27.847	22.880	28.052	0.637
629	630	79.874	26.865	26.132	27.199	0.591
