851	852	67.947	29.809	19.953	30.064	0.605
852	853	197.400	25.177	93.497	23.381	0.548
853	854	1492.325	16.392	848.121	13.779	0.520
854	855	72.121	29.550	22.928	29.508	0.595
855	856	92.864	28.452	28.254	28.624	0.559
856	857	69.457	29.714	20.176	30.052	0.594
857	858	63.461	30.072	18.723	30.352	0.612
858	859	76.279	29.273	23.274	29.361	0.573
859	860	92.528	28.468	35.549	27.602	0.569
860	861	143.132	26.539	85.268	23.814	0.573
861	862	157.632	26.154	66.216	24.877	0.565
862	863	216.654	24.705	55.458	25.635	0.543
863	864	200.209	25.082	27.033	28.790	0.550
864	865	301.693	23.232	79.226	24.063	0.515
865	866	292.241	23.405	106.710	22.793	0.516
866	867	149.400	26.353	54.762	25.714	0.576
867	868	129.217	26.983	26.941	28.772	0.571
868	869	126.867	27.029	25.366	29.021	0.553
869	870	121.292	27.258	23.261	29.375	0.577
870	871	112.756	27.575	26.765	28.879	0.553
871	872	98.995	28.106	28.702	28.519	0.566
872	873	79.232	29.108	25.389	29.053	0.601
873	874	98.273	28.206	28.772	28.612	0.555
874	875	120.386	27.325	41.182	26.952	0.565
875	876	231.029	24.460	122.084	22.299	0.535
876	877	88.998	28.637	28.889	28.616	0.580
877	878	75.472	29.319	30.112	28.389	0.597
878	879	87.638	28.704	38.028	27.399	0.589
879	880	82.079	28.988	28.253	28.701	0.562
880	881	76.442	29.297	26.172	29.000	0.599
881	882	208.039	24.949	122.693	22.312	0.546
882	883	79.049	29.152	25.580	29.155	0.591
883	884	121.237	27.294	53.849	25.946	0.561
884	885	85.329	28.820	35.229	27.800	0.619
885	886	83.795	28.899	31.338	28.365	0.594
886	887	90.638	28.558	33.511	28.051	0.575
887	888	83.417	28.918	29.079	28.622	0.625
888	889	85.543	28.809	25.758	29.182	0.630
889	890	81.705	29.008	19.743	30.303	0.641
890	891	92.249	28.481	21.061	30.080	0.603
891	892	82.666	28.958	20.603	30.163	0.633
892	893	89.850	28.596	24.586	29.396	0.593
893	894	101.463	28.068	27.504	28.909	0.620
894	895	110.362	27.703	29.444	28.613	0.599
895	896	114.869	27.529	34.386	27.916	0.603
896	897	121.512	27.285	33.539	28.081	0.581
897	898	106.830	27.844	29.210	28.579	0.609
898	899	96.284	28.295	30.870	28.362	0.602
899	900	80.028	29.098	24.214	29.417	0.620
900	901	84.336	28.871	26.889	28.973	0.614
901	902	187.058	25.377	88.784	23.704	0.547
902	903	261.352	23.959	86.469	23.900	0.538
903	904	328.411	22.967	145.072	21.618	0.503
904	905	145.222	26.510	55.595	25.772	0.567
905	906	80.945	29.049	26.627	28.981	0.609
906	907	83.590	28.909	33.601	27.972	0.611
907	908	94.689	28.368	35.372	27.816	0.576
908	909	99.858	28.137	34.736	27.827	0.579
909	910	88.540	28.659	33.145	28.053	0.607
910	911	87.469	28.712	28.436	28.661	0.614
911	912	108.668	27.736	39.786	27.237	0.593
912	913	84.768	28.814	27.880	28.724	0.605
913	914	99.004	28.174	35.634	27.636	0.585
914	915	109.375	27.742	35.960	27.597	0.559
915	916	103.519	27.981	32.966	28.020	0.562
916	917	102.506	28.023	33.274	28.013	0.582
917	918	74.150	29.396	25.853	28.983	0.627
918	919	111.932	27.607	42.440	26.876	0.575
919	920	135.676	26.806	39.544	27.240	0.552
920	921	109.124	27.717	25.075	29.196	0.582
921	922	107.635	27.777	25.692	29.125	0.571
922	923	88.818	28.612	20.103	30.121	0.586
923	924	153.287	26.242	23.591	29.403	0.535
924	925	77.758	29.189	23.790	29.390	0.594
925	926	79.670	29.049	22.363	29.624	0.591
926	927	92.037	28.457	28.491	28.572	0.587
927	928	85.157	28.794	27.125	28.809	0.579
928	929	107.987	27.797	28.205	28.674	0.571
929	930	90.177	28.511	25.242	29.144	0.594
930	931	83.713	28.869	28.615	28.622	0.582
931	932	91.753	28.470	34.144	27.821	0.579
932	933	85.333	28.785	28.489	28.584	0.590
933	934	92.257	28.481	29.489	28.503	0.575
934	935	82.948	28.909	29.280	28.488	0.594
935	936	84.808	28.812	34.239	27.854	0.600
936	937	99.077	28.137	32.675	28.035	0.580
937	938	140.661	26.615	37.176	27.520	0.570
938	939	143.848	26.552	38.695	27.381	0.584
939	940	167.013	25.903	46.170	26.671	0.562
940	941	166.145	25.892	62.749	25.304	0.575
941	942	130.619	26.971	67.483	25.022	0.605
942	943	130.377	26.979	70.644	24.812	0.592
943	944	119.846	27.345	40.900	27.197	0.600
944	945	121.146	27.298	38.947	27.409	0.614
945	946	115.635	27.500	23.933	29.536	0.607
946	947	114.233	27.553	22.856	29.690	0.626
947	948	118.388	27.398	31.998	28.308	0.590
948	949	109.093	27.753	33.036	28.136	0.617
949	950	110.194	27.709	28.105	28.860	0.607
950	951	106.632	27.852	29.932	28.598	0.624
951	952	120.791	27.310	35.184	27.851	0.611
952	953	137.513	26.747	49.847	26.315	0.616
953	954	171.448	25.789	68.238	24.951	0.589
954	955	167.916	25.880	72.366	24.753	0.579
955	956	134.653	26.839	45.968	26.667	0.595
956	957	158.176	26.139	65.624	25.189	0.572
957	958	208.604	24.938	96.459	23.471	0.539
958	959	203.003	25.056	83.657	24.078	0.553
959	960	153.566	26.268	78.637	24.381	0.602
960	961	190.679	25.328	104.095	23.163	0.560
961	962	174.301	25.718	93.239	23.573	0.564
962	963	146.093	26.485	75.816	24.494	0.586
963	964	141.585	26.621	76.165	24.462	0.581
964	965	130.254	26.983	67.881	25.008	0.577
965	966	73.952	29.441	28.047	28.789	0.630
966	967	250.019	24.151	119.639	22.558	0.526
967	968	349.314	22.699	152.383	21.439	0.508
968	969	349.846	22.692	174.672	20.812	0.500
969	970	308.721	23.201	160.739	21.173	0.509
970	971	166.841	25.908	92.367	23.602	0.557
971	972	200.019	25.120	116.200	22.628	0.549
972	973	207.796	24.954	116.020	22.646	0.539
973	974	206.092	24.990	115.720	22.612	0.560
974	975	176.966	25.652	96.112	23.486	0.563
975	976	177.317	25.643	87.715	23.906	0.566
976	977	208.527	24.939	111.721	22.775	0.531
977	978	263.536	23.922	137.248	21.916	0.516
978	979	267.880	23.851	129.556	22.155	0.515
979	980	183.766	25.488	84.958	23.988	0.556
980	981	148.655	26.409	64.527	25.205	0.586
981	982	136.844	26.769	58.698	25.628	0.588
982	983	79.739	29.114	26.211	29.095	0.640
983	984	126.825	27.099	46.521	26.603	0.597
984	985	86.085	28.782	26.170	29.125	0.623
985	986	88.427	28.631	29.959	28.492	0.625
986	987	86.265	28.772	23.977	29.539	0.602
987	988	80.999	29.046	26.574	29.104	0.613
988	989	88.107	28.681	20.846	30.101	0.669
989	990	63.569	30.098	21.930	29.881	0.724
990	991	81.205	29.035	27.981	28.811	0.609
991	992	112.868	27.605	30.008	28.496	0.590
992	993	100.422	28.113	28.491	28.756	0.620
993	994	104.376	27.945	25.398	29.232	0.639
994	995	114.581	27.540	28.603	28.704	0.633
995	996	95.516	28.330	40.334	27.246	0.608
996	997	91.269	28.528	38.156	27.453	0.619
997	998	92.230	28.482	30.578	28.414	0.572
998	999	79.784	29.112	22.420	29.739	0.633
999	1000	93.814	28.408	22.315	29.794	0.622
1000	1001	90.095	28.550	23.978	29.459	0.630
1001	1002	138.689	26.710	46.980	26.595	0.593
1002	1003	179.501	25.590	75.978	24.450	0.557
1003	1004	96.135	28.302	41.419	27.108	0.617
1004	1005	379.206	22.342	182.451	20.703	0.498
1005	1006	171.285	25.794	76.002	24.449	0.556
1006	1007	95.993	28.274	25.563	29.124	0.620
1007	1008	87.107	28.696	32.810	27.971	0.606
1008	1009	84.003	28.819	32.462	27.981	0.598
1009	1010	94.884	28.325	35.589	27.640	0.574
1010	1011	70.651	29.571	25.780	28.960	0.612
1011	1012	80.393	29.010	24.650	29.177	0.597
1012	1013	98.416	28.166	29.575	28.434	0.531
1013	1014	434.513	21.682	43.998	26.663	0.572
1014	1015	543.822	20.776	26.824	29.029	0.564
1015	1016	274.150	23.751	17.022	30.981	0.716
1016	1017	132.457	26.910	26.163	29.137	0.578
1017	1018	120.868	27.308	31.570	28.367	0.548
1018	1019	105.813	27.885	26.199	29.108	0.602
1019	1020	50.046	31.137	13.816	31.910	0.801
1020	1021	44.156	31.681	11.438	32.731	0.853
1021	1022	107.467	27.818	14.032	31.774	0.775
1022	1023	117.021	27.448	16.944	30.967	0.718
1023	1024	143.764	26.554	21.795	29.919	0.626
1024	1025	115.730	27.496	21.451	29.954	0.653
1025	1026	56.181	30.635	14.565	31.681	0.833
1026	1027	48.702	31.255	12.836	32.207	0.853
1027	1028	62.606	30.165	19.608	30.367	0.771
1028	1029	76.865	29.274	27.295	28.896	0.627
1029	1030	80.928	29.050	30.751	28.401	0.577
1030	1031	42.241	31.873	15.435	31.337	0.838
1031	1032	92.774	28.457	31.096	28.342	0.593
1032	1033	79.869	29.107	26.449	28.999	0.589
1033	1034	52.007	30.970	17.070	30.832	0.754
1034	1035	27.330	33.764	7.850	34.298	0.868
1035	1036	42.973	31.765	12.103	32.244	0.801
1036	1037	31.981	33.082	7.672	34.386	0.867
1037	1038	54.894	30.736	16.060	31.131	0.754
1038	1039	61.408	30.249	22.667	29.555	0.740
1039	1040	69.169	29.698	30.597	28.275	0.739
1040	1041	55.336	30.701	21.415	29.859	0.744
1041	1042	45.526	31.548	17.937	30.639	0.833
1042	1043	33.212	32.918	14.341	31.669	0.860
1043	1044	25.124	34.096	9.427	33.376	0.874
1044	1045	29.943	33.368	10.990	32.836	0.865
1045	1046	20.095	35.100	6.438	35.056	0.889
1046	1047	22.596	34.591	7.027	34.686	0.879
1047	1048	21.191	34.869	5.898	35.505	0.885
1048	1049	24.755	34.194	6.833	34.888	0.876
1049	1050	27.564	33.727	7.679	34.347	0.868
1050	1051	30.433	33.297	8.585	33.852	0.870
1051	1052	33.640	32.862	10.162	33.131	0.867
1052	1053	26.014	33.979	7.249	34.621	0.865
1053	1054	25.262	34.106	7.680	34.336	0.877
1054	1055	36.787	32.474	15.517	31.314	0.866
1055	1056	33.620	32.865	13.767	31.903	0.865
1056	1057	35.201	32.665	15.707	31.182	0.860
1057	1058	30.827	33.241	11.831	32.413	0.867
1058	1059	32.873	32.962	14.209	31.652	0.865
1059	1060	38.500	32.242	17.747	30.663	0.836
1060	1061	59.012	30.387	17.616	30.696	0.661
1061	1062	68.119	29.798	24.098	29.359	0.603
1062	1063	43.114	31.751	14.499	31.507	0.796
1063	1064	29.869	33.379	11.125	32.726	0.866
1064	1065	28.856	33.528	12.123	32.398	0.859
1065	1066	29.495	33.433	12.435	32.232	0.859
1066	1067	40.505	32.022	17.012	30.835	0.775
1067	1068	24.501	34.239	8.833	33.727	0.886
1068	1069	35.906	32.545	12.834	32.025	0.793
1069	1070	33.986	32.784	8.284	33.927	0.869
1070	1071	41.230	31.945	8.813	33.668	0.857
1071	1072	36.713	32.449	7.444	34.391	0.865
1072	1073	52.326	30.944	13.106	32.014	0.761
1073	1074	39.153	32.203	10.477	32.940	0.852
1074	1075	40.286	32.079	12.143	32.288	0.829
1075	1076	40.112	32.098	16.114	31.071	0.830
1076	1077	29.070	33.496	10.287	33.020	0.859
1077	1078	57.080	30.566	20.582	29.985	0.666
1078	1079	25.718	34.028	9.303	33.503	0.876
1079	1080	30.725	33.256	13.025	31.995	0.855
1080	1081	30.761	33.251	11.464	32.583	0.868
1081	1082	23.093	34.496	7.910	34.148	0.885
1082	1083	23.926	34.342	7.228	34.622	0.877
1083	1084	23.976	34.333	7.258	34.604	0.886
1084	1085	30.042	33.354	10.009	33.185	0.871
1085	1086	29.146	33.485	9.213	33.521	0.864
1086	1087	29.109	33.491	9.146	33.554	0.853
1087	1088	63.219	30.088	16.590	30.944	0.638
1088	1089	79.081	29.150	24.489	29.207	0.558
1089	1090	35.961	32.572	10.602	32.889	0.836
1090	1091	78.680	29.172	26.354	28.969	0.564
1091	1092	30.231	33.326	10.177	33.124	0.853
1092	1093	54.250	30.753	14.089	31.666	0.659
1093	1094	55.944	30.585	15.359	31.279	0.673
1094	1095	43.413	31.721	15.364	31.254	0.791
1095	1096	46.496	31.457	14.311	31.621	0.746
1096	1097	72.501	29.493	23.347	29.495	0.584
1097	1098	33.730	32.816	10.118	33.127	0.847
1098	1099	48.343	31.253	14.197	31.621	0.750
1099	1100	51.664	30.999	16.578	31.005	0.736
1100	1101	52.267	30.949	19.037	30.427	0.721
1101	1102	74.118	29.397	24.741	29.255	0.599
1102	1103	60.402	30.320	19.659	30.253	0.625
1103	1104	24.811	34.184	7.720	34.336	0.877
1104	1105	33.132	32.894	11.556	32.526	0.812
1105	1106	26.437	33.875	9.214	33.510	0.854
1106	1107	22.129	34.681	6.094	35.329	0.875
1107	1108	20.135	35.091	5.575	35.727	0.889
1108	1109	22.112	34.685	6.394	35.133	0.880
1109	1110	23.716	34.380	6.875	34.851	0.875
1110	1111	48.146	31.271	12.680	32.135	0.744
1111	1112	53.907	30.780	14.974	31.413	0.704
1112	1113	33.277	32.909	7.491	34.478	0.864
1113	1114	80.333	29.013	15.884	31.145	0.619
1114	1115	97.080	28.225	21.265	29.889	0.583
1115	1116	89.037	28.635	19.505	30.288	0.634
1116	1117	98.904	28.145	23.453	29.476	0.587
1117	1118	75.553	29.314	14.629	31.478	0.744
1118	1119	47.972	31.287	10.343	33.088	0.787
1119	1120	64.508	30.035	15.705	31.331	0.615
1120	1121	46.293	31.441	8.094	34.084	0.822
1121	1122	77.252	29.218	18.312	30.539	0.637
1122	1123	41.375	31.929	8.942	33.629	0.817
1123	1124	38.297	32.265	10.383	33.059	0.835
1124	1125	47.348	31.378	20.360	30.158	0.857
1125	1126	37.016	32.447	13.675	31.932	0.856
1126	1127	36.932	32.423	8.414	33.996	0.871
1127	1128	39.119	32.207	10.926	32.907	0.876
1128	1129	53.760	30.826	19.161	30.444	0.799
1129	1130	52.398	30.938	18.041	30.671	0.821
1130	1131	41.522	31.948	10.295	33.176	0.857
1131	1132	33.759	32.847	9.096	33.703	0.867
1132	1133	34.887	32.704	11.862	32.516	0.859
1133	1134	53.638	30.836	18.838	30.495	0.730
1134	1135	37.567	32.383	14.384	31.747	0.842
1135	1136	28.339	33.607	12.347	32.308	0.866
1136	1137	26.394	33.916	10.872	32.940	0.862
1137	1138	31.258	33.147	12.825	32.108	0.828
1138	1139	24.972	34.156	7.736	34.349	0.870
1139	1140	24.193	34.294	7.654	34.397	0.879
1140	1141	26.212	33.946	7.747	34.366	0.874
1141	1142	28.755	33.510	9.393	33.460	0.857
1142	1143	38.015	32.297	10.831	32.841	0.828
1143	1144	35.205	32.665	8.117	34.186	0.876
1144	1145	30.288	33.318	7.559	34.415	0.868
1145	1146	29.662	33.409	8.069	34.166	0.862
1146	1147	46.737	31.400	14.875	31.453	0.735
1147	1148	23.846	34.357	6.104	35.367	0.873
1148	1149	25.734	34.026	6.541	35.056	0.862
1149	1150	24.735	34.198	6.047	35.386	0.874
1150	1151	67.456	29.841	18.558	30.492	0.599
1151	1152	25.385	34.085	5.538	35.755	0.876
1152	1153	23.269	34.463	6.835	34.796	0.871
1153	1154	21.326	34.842	6.219	35.275	0.881
1154	1155	23.878	34.351	6.537	35.070	0.868
1155	1156	25.247	34.075	7.055	34.692	0.856
1156	1157	23.231	34.470	6.683	34.974	0.873
1157	1158	23.984	34.332	6.659	35.035	0.863
1158	1159	22.664	34.578	6.485	35.070	0.872
1159	1160	32.194	33.019	8.571	33.882	0.846
1160	1161	32.077	33.069	9.111	33.628	0.851
1161	1162	34.329	32.774	10.509	33.031	0.855
1162	1163	32.306	33.038	9.216	33.601	0.859
1163	1164	29.841	33.383	7.749	34.297	0.870
1164	1165	25.941	33.957	6.815	34.843	0.869
1165	1166	21.275	34.852	5.152	36.103	0.886
1166	1167	25.797	34.015	6.695	34.932	0.871
1167	1168	26.701	33.831	6.271	35.238	0.877
1168	1169	37.562	32.383	11.125	32.726	0.785
1169	1170	26.296	33.932	6.177	35.281	0.860
1170	1171	31.249	33.182	6.698	34.918	0.867
1171	1172	30.517	33.285	8.447	33.922	0.858
1172	1173	31.283	33.178	8.264	33.994	0.848
1173	1174	27.832	33.685	6.322	35.238	0.872
1174	1175	31.922	33.090	8.368	33.986	0.855
1175	1176	31.054	33.210	7.183	34.660	0.870
1176	1177	35.226	32.628	7.740	34.335	0.861
1177	1178	23.087	34.463	6.312	35.210	0.872
1178	1179	22.035	34.700	6.433	35.151	0.873
1179	1180	20.311	35.054	6.338	35.203	0.883
1180	1181	20.319	35.052	6.431	35.140	0.881
1181	1182	23.231	34.470	7.693	34.351	0.869
1182	1183	21.224	34.862	6.888	34.842	0.880
1183	1184	20.059	35.108	6.134	35.322	0.881
1184	1185	26.062	33.971	8.377	33.969	0.865
1185	1186	26.985	33.785	8.909	33.690	0.844
1186	1187	28.980	33.476	9.091	33.579	0.819
1187	1188	21.886	34.729	7.092	34.703	0.880
1188	1189	22.308	34.646	6.929	34.816	0.877
1189	1190	27.945	33.668	8.212	34.032	0.865
1190	1191	37.050	32.443	13.640	31.829	0.767
1191	1192	37.507	32.356	11.534	32.545	0.762
1192	1193	20.733	34.964	6.850	34.867	0.877
1193	1194	21.668	34.773	7.556	34.440	0.873
1194	1195	25.335	34.094	8.868	33.745	0.870
1195	1196	29.043	33.500	10.529	32.976	0.867
1196	1197	22.851	34.542	7.051	34.752	0.869
1197	1198	20.357	35.044	6.242	35.246	0.877
1198	1199	20.379	35.039	6.650	34.960	0.882
1199	1200	21.107	34.886	5.783	35.578	0.889
1200	1201	27.273	33.739	7.350	34.504	0.866
1201	1202	55.998	30.581	15.831	31.159	0.720
1202	1203	78.421	29.152	18.466	30.490	0.620
1203	1204	81.377	29.026	20.770	30.038	0.589
1204	1205	83.193	28.862	22.057	29.729	0.594
1205	1206	82.114	28.987	23.839	29.438	0.605
1206	1207	85.455	28.813	23.754	29.432	0.597
1207	1208	75.334	29.327	21.283	29.885	0.604
1208	1209	106.418	27.861	21.486	29.913	0.597
1209	1210	200.373	25.112	23.204	29.545	0.566
1210	1211	220.004	24.707	26.150	29.048	0.564
1211	1212	179.729	25.585	29.996	28.452	0.576
1212	1213	118.463	27.395	24.430	29.458	0.596
1213	1214	35.306	32.652	10.873	32.962	0.817
1214	1215	134.528	26.843	22.299	29.854	0.588
1215	1216	166.561	25.915	29.151	28.645	0.551
1216	1217	183.103	25.504	34.959	27.764	0.558
1217	1218	89.255	28.624	21.932	29.858	0.602
1218	1219	85.816	28.795	21.444	29.944	0.605
1219	1220	84.311	28.872	22.010	29.785	0.606
1220	1221	91.727	28.472	23.064	29.616	0.604
1221	1222	89.357	28.585	26.892	28.880	0.590
1222	1223	145.280	26.440	53.464	25.919	0.581
1223	1224	152.748	26.291	38.170	27.383	0.592
1224	1225	116.670	27.393	24.273	29.292	0.606
1225	1226	83.561	28.911	34.929	27.768	0.617
1226	1227	83.301	28.924	29.630	28.597	0.628
1227	1228	328.152	22.970	128.827	22.122	0.512
1228	1229	139.540	26.684	54.893	25.850	0.611
1229	1230	228.902	24.534	54.330	25.918	0.616
1230	1231	232.432	24.468	82.600	24.087	0.586
1231	1232	247.584	24.194	117.128	22.559	0.579
1232	1233	146.481	26.473	41.741	27.017	0.583
1233	1234	105.452	27.866	32.381	28.062	0.589
1234	1235	109.110	27.752	26.408	28.937	0.603
1235	1236	123.074	27.195	33.578	27.849	0.589
1236	1237	145.615	26.499	32.877	27.941	0.584
1237	1238	165.727	25.868	25.058	29.130	0.590
1238	1239	119.044	27.340	32.230	28.082	0.593
1239	1240	136.498	26.745	29.400	28.395	0.582
1240	1241	125.951	27.095	32.558	27.919	0.612
1241	1242	115.687	27.498	31.238	28.232	0.601
1242	1243	127.535	27.040	31.119	28.214	0.606
1243	1244	95.280	28.307	26.840	28.844	0.616
1244	1245	103.745	27.937	34.909	27.669	0.602
1245	1246	106.343	27.830	30.351	28.241	0.593
1246	1247	124.149	27.157	33.085	27.846	0.581
1247	1248	121.841	27.273	30.820	28.164	0.584
1248	1249	93.747	28.377	29.883	28.364	0.596
1249	1250	107.923	27.766	31.108	28.203	0.597
