530	531	1	-0.00	0.99	-25.04	22.17	17
531	532	1	0.01	1.02	-11.37	22.40	13
532	533	1	0.00	1.01	-1.93	14.97	9
533	534	1	0.00	1.01	-21.32	24.91	10
534	535	1	-0.00	1.00	-22.74	23.93	14
535	536	1	0.01	0.99	-18.27	20.36	12
536	537	1	0.01	1.01	-17.07	17.13	14
537	538	1	0.00	1.01	-12.88	22.55	15
538	539	1	-0.00	1.01	-9.36	12.60	15
539	540	1	0.00	1.00	-3.29	-1.97	14
540	541	1	0.00	0.99	4.14	-13.01	12
541	542	1	-0.01	1.00	15.23	-25.24	11
542	543	1	-0.01	0.99	21.65	-37.92	9
543	544	1	-0.01	0.98	26.65	-45.89	9
544	545	1	0.00	0.99	25.75	-45.08	10
545	546	1	-0.00	0.99	31.04	-43.41	11
546	547	1	0.00	0.97	36.40	-53.55	11
547	548	1	0.00	0.99	30.80	-36.20	10
548	549	1	-0.00	1.00	34.85	-39.15	4
549	550	1	-0.00	0.98	26.00	-30.06	5
550	551	1	0.00	1.00	31.59	-25.27	7
551	552	1	0.01	0.99	31.71	-22.96	9
552	553	1	-0.00	1.00	43.54	-21.41	7
553	554	1	0.00	1.00	28.30	-20.59	15
554	555	1	-0.01	0.96	14.75	-19.73	14
555	556	1	-0.00	0.96	13.18	-18.52	10
556	557	1	0.00	0.97	12.28	-26.21	10
557	558	1	-0.00	0.97	8.87	-19.58	14
558	559	1	0.00	0.98	1.93	-8.29	15
559	560	1	-0.00	0.98	3.18	-20.44	17
560	561	1	0.00	0.97	2.25	-22.57	20
561	562	1	0.00	0.98	0.35	-20.01	14
562	563	1	0.00	0.98	7.49	-22.81	11
563	564	1	-0.00	0.99	4.08	-17.84	13
564	565	1	0.00	0.99	-2.26	-13.54	14
565	566	1	-0.00	0.99	-0.98	-15.36	16
566	567	1	0.00	1.00	0.97	-9.03	17
567	568	1	0.00	1.00	-3.22	-3.78	18
568	569	1	-0.00	1.00	-3.36	-3.34	12
569	570	1	0.00	1.00	0.00	-7.43	19
